@startuml VPC

!define AWSPuml https://raw.githubusercontent.com/awslabs/aws-icons-for-plantuml/v14.0/dist

!include AWSPuml/AWSCommon.puml
!include AWSPuml/AWSSimplified.puml
!include AWSPuml/Compute/all.puml
!include AWSPuml/Compute/EC2.puml
!include AWSPuml/Compute/EC2Instance.puml
!include AWSPuml/Groups/AWSCloud.puml
!include AWSPuml/Groups/VPC.puml
!include AWSPuml/Groups/AvailabilityZone.puml
!include AWSPuml/Groups/PublicSubnet.puml
!include AWSPuml/Groups/PrivateSubnet.puml
!include AWSPuml/NetworkingContentDelivery/VPCNATGateway.puml
!include AWSPuml/NetworkingContentDelivery/VPCInternetGateway.puml
!include AWSPuml/ApplicationIntegration/all.puml

hide stereotype
skinparam linetype ortho

AWSCloudGroup(cloud) {
  VPCGroup(vpc) {
    APIGateway(api_gateway, "API gateway", "")
    AvailabilityZoneGroup(az_1, "\tAvailability Zone 1\t") {
      PublicSubnetGroup(az_1_public, "Public subnet") {
        VPCNATGateway(az_1_nat_gateway, "NAT gateway", "") #Transparent
      }
      PrivateSubnetGroup(az_1_private, "Private subnet") {
        EC2Instance(az_1_ec2_1, "Instance", "") #Transparent
      }


'      az_1_ec2_1 .u.> az_1_nat_gateway
    }

    AvailabilityZoneGroup(az_2, "\tAvailability Zone 2\t") {
      PublicSubnetGroup(az_2_public, "Public subnet") {
        VPCNATGateway(az_2_nat_gateway, "NAT gateway", "") #Transparent
      }
      PrivateSubnetGroup(az_2_private, "Private subnet") {
        EC2Instance(az_2_ec2_1, "Instance", "") #Transparent
      }

'      az_2_ec2_1 .u.> az_2_nat_gateway
    }

    AvailabilityZoneGroup(az_3, "\tAvailability Zone 3\t") {
          PublicSubnetGroup(az_3_public, "Public subnet") {
            VPCNATGateway(az_3_nat_gateway, "NAT gateway", "") #Transparent
          }
          PrivateSubnetGroup(az_3_private, "Private subnet") {
            EC2Instance(az_3_ec2_1, "Instance", "") #Transparent
          }

'          az_3_ec2_1 .u.> az_3_nat_gateway
        }

      api_gateway .d.> az_1_nat_gateway
      api_gateway .d.> az_2_nat_gateway
      api_gateway .d.> az_3_nat_gateway

    az_3_nat_gateway .[hidden]u.> api_gateway
    az_2_nat_gateway .[hidden]u.> api_gateway
    az_1_nat_gateway .[hidden]u.> api_gateway
  }
}
@enduml