@startuml
'-------------------------------------------------------------------------
'Arch_Amazon_ECS_Anywhere_48_c
'Arch_Amazon_EKS_Anywhere_48_c
'Arch_Amazon_EKS_Cloud_48_c
'Arch_Amazon_EKS_Distro_48_c
'Arch_Amazon_Elastic_Container_Registry_48_c
'Arch_Amazon_Elastic_Container_Service_48_c
'Arch_Amazon_Elastic_Kubernetes_Service_48_c
'Arch_AWS_Fargate_48_c
'Arch_Red_Hat_OpenShift_48_c
'Res_Amazon_Elastic_Container_Registry_Image_48_Dark_c
'Res_Amazon_Elastic_Container_Registry_Registry_48_Dark_c
'Res_Amazon_Elastic_Container_Service_Container_1_48_Dark_c
'Res_Amazon_Elastic_Container_Service_Container_2_48_Dark_c
'Res_Amazon_Elastic_Container_Service_Container_3_48_Dark_c
'Res_Amazon_Elastic_Container_Service_Copilot_CLI_48_Dark_c
'Res_Amazon_Elastic_Container_Service_ECS_Anywhere_48_Dark_c
'Res_Amazon_Elastic_Container_Service_Service_48_Dark_c
'Res_Amazon_Elastic_Container_Service_Task_48_Dark_c
'-------------------------------------------------------------------------
sprite Arch_Amazon_ECS_Anywhere_48_c <svg width="64px" height="64px" viewBox="0 0 64 64" version="1.1" xmlns="http://www.w3.org/2000/svg" xmlns:xlink="http://www.w3.org/1999/xlink"><path id="rect" fill="#FF9900" d="M5 0h54s5 0 5 5v54s0 5 -5 5h-54s-5 0 -5 -5v-54s0 -5 5 -5" /><path d="M42,30.6948647 L36.519,27.4764904 C36.824,26.3678163 37,25.2058212 37,24.0005657 C37,18.2016569 33.226,13.2780171 28.022,11.5697334 C28.015,11.5606789 28.007,11.5536365 28,11.5455881 L28,4.79293785 L42,13.3403926 L42,30.6948647 Z M23.247,43.838991 L6,33.8206818 L6,13.2951201 L20,4.78891363 L20,11.561685 C14.784,13.2639323 11,18.1926024 11,24.0005657 C11,31.2119777 16.832,37.0792983 24,37.0792983 C27.275,37.0792983 30.262,35.8448672 32.551,33.8267181 L36.847,36.3126834 L23.247,43.838991 Z M29.029,22.9945094 L25,22.9945094 L25,12.9842487 C25.629,13.0415939 26.239,13.1593025 26.832,13.3192654 C28.115,15.2609542 28.895,19.0356776 29.029,22.9945094 L29.029,22.9945094 Z M30.997,22.9945094 C30.913,19.8737226 30.442,16.8293961 29.591,14.4862908 C32.551,16.2539318 34.623,19.3706944 34.949,22.9945094 L30.997,22.9945094 Z M25,25.0066221 L29.043,25.0066221 C28.959,28.8115272 28.257,32.5228691 26.81,34.6868963 C26.223,34.8438411 25.621,34.9595376 25,35.0158767 L25,25.0066221 Z M21.183,34.6848842 C19.782,32.663717 19.063,28.93326 19.003,25.0066221 L23,25.0066221 L23,35.0158767 C22.377,34.9595376 21.772,34.842835 21.183,34.6848842 L21.183,34.6848842 Z M17.007,25.0066221 C17.057,28.1183544 17.505,31.1445719 18.357,33.4826469 C15.425,31.7089695 13.375,28.6083038 13.051,25.0066221 L17.007,25.0066221 Z M17.029,22.9945094 L13.051,22.9945094 C13.383,19.3063068 15.521,16.1412535 18.565,14.3907155 C17.664,16.8132992 17.15,19.880765 17.029,22.9945094 L17.029,22.9945094 Z M23,22.9945094 L19.03,22.9945094 C19.187,19.2016769 19.948,15.5134743 21.296,13.2860656 C21.85,13.1442116 22.417,13.0375697 23,12.9842487 L23,22.9945094 Z M29.572,33.5259073 C30.441,31.1626809 30.912,28.1183544 30.996,25.0066221 L34.949,25.0066221 C34.622,28.6374795 32.543,31.7592723 29.572,33.5259073 L29.572,33.5259073 Z M43.519,11.9138047 L27.519,2.14600359 C27.209,1.956865 26.823,1.95183471 26.51,2.12890063 C26.194,2.30797866 26,2.64299543 26,3.00618177 L26,11.0928627 C25.346,10.990245 24.682,10.9218332 24,10.9218332 C23.318,10.9218332 22.654,10.990245 22,11.0928627 L22,3.00618177 C22,2.64299543 21.806,2.30898472 21.491,2.12990669 C21.178,1.95183471 20.791,1.95787105 20.483,2.14499753 L4.483,11.865514 C4.184,12.0476102 4,12.3745785 4,12.7266983 L4,34.4021824 C4,34.7613445 4.19,35.0933431 4.5,35.2734272 L22.735,45.8661945 C22.89,45.9547275 23.063,46 23.235,46 C23.401,46 23.567,45.9587517 23.718,45.875249 L39.368,37.2141099 C39.685,37.0390561 39.882,36.7060514 39.886,36.3428651 C39.889,35.9786727 39.697,35.6416438 39.385,35.4605537 L34.001,32.3447971 C34.735,31.4554433 35.344,30.4634717 35.826,29.4000702 L42.496,33.3156415 C42.651,33.4071926 42.826,33.4524652 43,33.4524652 C43.172,33.4524652 43.344,33.4081987 43.498,33.3186597 C43.809,33.1395816 44,32.806577 44,32.4464088 L44,12.7739829 C44,12.4218632 43.817,12.0959009 43.519,11.9138047 L43.519,11.9138047 Z" id="Fill-3" fill="#FFFFFF"></path></svg>
sprite Arch_Amazon_EKS_Anywhere_48_c <svg width="64px" height="64px" viewBox="0 0 64 64" version="1.1" xmlns="http://www.w3.org/2000/svg" xmlns:xlink="http://www.w3.org/1999/xlink"><path id="rect" fill="#FF9900" d="M5 0h54s5 0 5 5v54s0 5 -5 5h-54s-5 0 -5 -5v-54s0 -5 5 -5" /><path d="M31.998,36.0256158 L32.998,36.0256158 L32.998,35.0256158 L31.998,35.0256158 L31.998,36.0256158 Z M30.998,38.0256158 L33.998,38.0256158 C34.551,38.0256158 34.998,37.5776158 34.998,37.0256158 L34.998,34.0256158 C34.998,33.4736158 34.551,33.0256158 33.998,33.0256158 L30.998,33.0256158 C30.445,33.0256158 29.998,33.4736158 29.998,34.0256158 L29.998,37.0256158 C29.998,37.5776158 30.445,38.0256158 30.998,38.0256158 L30.998,38.0256158 Z M38.998,36.0256158 L39.998,36.0256158 L39.998,35.0256158 L38.998,35.0256158 L38.998,36.0256158 Z M37.998,38.0256158 L40.998,38.0256158 C41.551,38.0256158 41.998,37.5776158 41.998,37.0256158 L41.998,34.0256158 C41.998,33.4736158 41.551,33.0256158 40.998,33.0256158 L37.998,33.0256158 C37.445,33.0256158 36.998,33.4736158 36.998,34.0256158 L36.998,37.0256158 C36.998,37.5776158 37.445,38.0256158 37.998,38.0256158 L37.998,38.0256158 Z M31.998,28.0256158 L32.998,28.0256158 L32.998,27.0256158 L31.998,27.0256158 L31.998,28.0256158 Z M30.998,30.0256158 L33.998,30.0256158 C34.551,30.0256158 34.998,29.5776158 34.998,29.0256158 L34.998,26.0256158 C34.998,25.4736158 34.551,25.0256158 33.998,25.0256158 L30.998,25.0256158 C30.445,25.0256158 29.998,25.4736158 29.998,26.0256158 L29.998,29.0256158 C29.998,29.5776158 30.445,30.0256158 30.998,30.0256158 L30.998,30.0256158 Z M38.998,28.0256158 L39.998,28.0256158 L39.998,27.0256158 L38.998,27.0256158 L38.998,28.0256158 Z M37.998,30.0256158 L40.998,30.0256158 C41.551,30.0256158 41.998,29.5776158 41.998,29.0256158 L41.998,26.0256158 C41.998,25.4736158 41.551,25.0256158 40.998,25.0256158 L37.998,25.0256158 C37.445,25.0256158 36.998,25.4736158 36.998,26.0256158 L36.998,29.0256158 C36.998,29.5776158 37.445,30.0256158 37.998,30.0256158 L37.998,30.0256158 Z M27.998,44.0256158 L43.998,44.0256158 L43.998,23.0256158 L27.998,23.0256158 L27.998,44.0256158 Z M21,43.8286158 L4,33.4396158 L4,13.5546158 L18,4.80461578 L18,11.4456158 L10.47,16.1526158 C10.178,16.3356158 10,16.6556158 10,17.0006158 L10,30.0006158 C10,30.3516158 10.185,30.6766158 10.485,30.8576158 L20.485,36.8576158 C20.79,37.0396158 21.168,37.0486158 21.479,36.8786158 L25.998,34.4136158 L25.998,40.7746158 L21,43.8286158 Z M32.485,16.1266158 L24,11.4116158 L24,4.74861578 L39,13.5716158 L39,21.0256158 L33,21.0256158 L33,17.0006158 C33,16.6366158 32.803,16.3026158 32.485,16.1266158 L32.485,16.1266158 Z M44.998,21.0256158 L41,21.0256158 L41,13.0006158 C41,12.6456158 40.813,12.3186158 40.507,12.1386158 L23.507,2.13861578 C23.199,1.95661578 22.816,1.95461578 22.504,2.13261578 C22.193,2.31061578 22,2.64161578 22,3.00061578 L22,12.0006158 C22,12.3636158 22.197,12.6976158 22.515,12.8746158 L31,17.5886158 L31,21.0256158 L26.998,21.0256158 C26.445,21.0256158 25.998,21.4736158 25.998,22.0256158 L25.998,28.8036158 L21.651,23.3416158 L26.709,17.0006158 L24.463,17.0006158 L20,22.2416158 L20,17.0006158 L18,17.0006158 L18,30.0006158 L20,30.0006158 L20,24.0006158 L24.752,30.0216158 L25.998,30.0216158 L25.998,32.1356158 L21.024,34.8486158 L12,29.4336158 L12,17.5546158 L19.53,12.8486158 C19.822,12.6656158 20,12.3446158 20,12.0006158 L20,3.00061578 C20,2.63661578 19.803,2.30161578 19.485,2.12561578 C19.167,1.94861578 18.778,1.95961578 18.47,2.15261578 L2.47,12.1526158 C2.178,12.3356158 2,12.6556158 2,13.0006158 L2,34.0006158 C2,34.3486158 2.182,34.6716158 2.479,34.8536158 L20.479,45.8536158 C20.639,45.9516158 20.819,46.0006158 21,46.0006158 C21.181,46.0006158 21.361,45.9516158 21.522,45.8536158 L25.998,43.1186158 L25.998,45.0256158 C25.998,45.5776158 26.445,46.0256158 26.998,46.0256158 L44.998,46.0256158 C45.551,46.0256158 45.998,45.5776158 45.998,45.0256158 L45.998,22.0256158 C45.998,21.4736158 45.551,21.0256158 44.998,21.0256158 L44.998,21.0256158 Z" id="Fill-3" fill="#FFFFFF"></path></svg>
sprite Arch_Amazon_EKS_Cloud_48_c <svg width="64px" height="64px" viewBox="0 0 64 64" version="1.1" xmlns="http://www.w3.org/2000/svg" xmlns:xlink="http://www.w3.org/1999/xlink"><path id="rect" fill="#FF9900" d="M5 0h54s5 0 5 5v54s0 5 -5 5h-54s-5 0 -5 -5v-54s0 -5 5 -5" /><path d="M40.812,39.8652228 L24.97,39.8482228 C23.207,39.8462228 21.683,38.5482228 21.502,36.8912228 C21.485,36.7322228 21.475,36.5662228 21.475,36.3912228 C21.475,34.1712228 22.89,33.3442228 24.077,33.0422228 C24.563,32.9182228 24.882,32.4522228 24.823,31.9542228 C24.797,31.7402228 24.784,31.5222228 24.784,31.3012228 C24.784,29.3812228 26.155,27.2392228 27.84,26.5252228 C28.616,26.1962228 29.333,26.0662228 29.983,26.0662228 C31.833,26.0662228 33.139,27.1252228 33.709,27.6982228 C34.335,28.3252228 34.845,29.1652228 35.184,30.1272228 C35.307,30.4762228 35.614,30.7292228 35.979,30.7832228 C36.348,30.8402228 36.711,30.6862228 36.932,30.3892228 C37.341,29.8362228 37.974,29.6032228 38.578,29.7792228 C39.326,29.9982228 39.825,30.7942228 39.924,31.9172228 C39.885,32.4272228 40.24,32.8902228 40.752,32.9782228 C41.695,33.1402228 43.886,33.8012228 43.886,36.4292228 C43.886,39.4882228 41.048,39.8392228 40.812,39.8652228 L40.812,39.8652228 Z M21,43.8282228 L4,33.4392228 L4,13.5542228 L18,4.80422277 L18,11.4462228 L10.47,16.1522228 C10.178,16.3352228 10,16.6552228 10,17.0002228 L10,30.0002228 C10,30.3512228 10.185,30.6772228 10.486,30.8572228 L19.484,36.2562228 C19.483,36.3022228 19.475,36.3442228 19.475,36.3912228 C19.475,36.6422228 19.489,36.8822228 19.514,37.1102228 C19.786,39.6002228 21.811,41.5072228 24.333,41.7912228 L21,43.8282228 Z M32.486,16.1262228 L24,11.4112228 L24,4.74822277 L39,13.5722228 L39,27.8342228 C38.14,27.6202228 37.257,27.7392228 36.5,28.1592228 C36.123,27.4512228 35.663,26.8242228 35.125,26.2852228 C34.481,25.6382228 33.76,25.1472228 33,24.7812228 L33,17.0002228 C33,16.6362228 32.803,16.3022228 32.486,16.1262228 L32.486,16.1262228 Z M41.841,31.1792228 C41.7,30.3982228 41.409,29.7222228 41,29.1752228 L41,13.0002228 C41,12.6452228 40.813,12.3182228 40.507,12.1382228 L23.507,2.13822277 C23.2,1.95622277 22.816,1.95422277 22.504,2.13222277 C22.193,2.31022277 22,2.64122277 22,3.00022277 L22,12.0002228 C22,12.3632228 22.198,12.6982228 22.515,12.8742228 L31,17.5882228 L31,24.1642228 C29.714,23.9732228 28.372,24.1282228 27.061,24.6832228 C26.041,25.1152228 25.138,25.8742228 24.418,26.8002228 L21.651,23.3402228 L26.708,17.0002228 L24.463,17.0002228 L20,22.2412228 L20,17.0002228 L18,17.0002228 L18,30.0002228 L20,30.0002228 L20,24.0002228 L23.454,28.3772228 C23.031,29.3052228 22.784,30.3092228 22.784,31.3012228 L22.784,31.3622228 C21.411,31.9102228 20.423,32.8952228 19.901,34.1742228 L12,29.4332228 L12,17.5542228 L19.531,12.8482228 C19.823,12.6652228 20,12.3442228 20,12.0002228 L20,3.00022277 C20,2.63622277 19.803,2.30222277 19.485,2.12522277 C19.168,1.94922277 18.78,1.95922277 18.47,2.15222277 L2.47,12.1522228 C2.178,12.3352228 2,12.6552228 2,13.0002228 L2,34.0002228 C2,34.3482228 2.182,34.6712228 2.479,34.8532228 L20.479,45.8532228 C20.639,45.9512228 20.82,46.0002228 21,46.0002228 C21.181,46.0002228 21.362,45.9512228 21.522,45.8532228 L28.071,41.8512228 L40.892,41.8622228 C42.62,41.7212228 45.886,40.4052228 45.886,36.4292228 C45.886,33.4042228 43.914,31.7782228 41.841,31.1792228 L41.841,31.1792228 Z" id="Fill-4" fill="#FFFFFF"></path></svg>
sprite Arch_Amazon_EKS_Distro_48_c <svg width="64px" height="64px" viewBox="0 0 64 64" version="1.1" xmlns="http://www.w3.org/2000/svg" xmlns:xlink="http://www.w3.org/1999/xlink"><path id="rect" fill="#FF9900" d="M5 0h54s5 0 5 5v54s0 5 -5 5h-54s-5 0 -5 -5v-54s0 -5 5 -5" /><path d="M33.441,36.9946158 C31.511,36.9946158 29.941,35.4246158 29.941,33.4946158 C29.941,31.5646158 31.511,29.9946158 33.441,29.9946158 C35.371,29.9946158 36.941,31.5646158 36.941,33.4946158 C36.941,35.4246158 35.371,36.9946158 33.441,36.9946158 L33.441,36.9946158 Z M33.441,27.9946158 C30.409,27.9946158 27.941,30.4616158 27.941,33.4946158 C27.941,36.5276158 30.409,38.9946158 33.441,38.9946158 C36.473,38.9946158 38.941,36.5276158 38.941,33.4946158 C38.941,30.4616158 36.473,27.9946158 33.441,27.9946158 L33.441,27.9946158 Z M43.941,34.9946158 L42.502,34.9946158 C42.048,34.9946158 41.652,35.2986158 41.536,35.7366158 C41.35,36.4326158 41.068,37.1046158 40.697,37.7346158 C40.465,38.1296158 40.531,38.6306158 40.856,38.9526158 L41.865,39.9516158 L39.937,41.8616158 L38.915,40.8486158 C38.594,40.5326158 38.101,40.4696158 37.712,40.6926158 C37.075,41.0586158 36.394,41.3386158 35.687,41.5246158 C35.248,41.6396158 34.941,42.0366158 34.941,42.4916158 L34.941,43.9946158 L31.941,43.9946158 L31.941,42.5556158 C31.941,42.0966158 31.629,41.6966158 31.184,41.5846158 C30.432,41.3966158 29.707,41.1116158 29.028,40.7376158 C28.648,40.5266158 28.174,40.5886158 27.858,40.8876158 L26.723,41.9616158 L24.642,39.9906158 L25.698,38.9896158 C26.042,38.6646158 26.11,38.1436158 25.863,37.7406158 C25.472,37.1036158 25.174,36.4266158 24.979,35.7256158 C24.859,35.2936158 24.465,34.9946158 24.016,34.9946158 L22.941,34.9946158 L22.941,32.1066158 C23.102,32.1196158 23.273,32.1446158 23.352,32.1566158 C23.526,32.1826158 23.674,32.2026158 23.781,32.1946158 L24.425,32.1656158 C24.864,32.1466158 25.238,31.8436158 25.348,31.4176158 C25.536,30.6976158 25.819,30.0026158 26.191,29.3506158 C26.413,28.9616158 26.35,28.4736158 26.037,28.1536158 L24.997,27.0946158 L26.948,25.1066158 L27.956,26.1396158 C28.278,26.4706158 28.786,26.5366158 29.181,26.3016158 C29.818,25.9236158 30.498,25.6366158 31.201,25.4466158 C31.637,25.3286158 31.941,24.9326158 31.941,24.4806158 L31.941,22.9946158 L34.941,22.9946158 L34.941,24.4336158 C34.941,24.8876158 35.247,25.2846158 35.685,25.4006158 C36.39,25.5876158 37.071,25.8696158 37.708,26.2406158 C38.099,26.4686158 38.596,26.4046158 38.918,26.0826158 L39.937,25.0636158 L41.872,26.9986158 L40.852,28.0186158 C40.531,28.3396158 40.466,28.8366158 40.695,29.2286158 C41.066,29.8666158 41.349,30.5466158 41.535,31.2506158 C41.651,31.6886158 42.047,31.9946158 42.502,31.9946158 L43.941,31.9946158 L43.941,34.9946158 Z M21,43.8286158 L4,33.4396158 L4,13.5546158 L18,4.80461578 L18,11.4466158 L10.469,16.1526158 C10.177,16.3356158 10,16.6556158 10,17.0006158 L10,30.0006158 C10,30.3516158 10.184,30.6776158 10.485,30.8576158 L20.485,36.8576158 C20.789,37.0396158 21.167,37.0476158 21.478,36.8786158 L21.658,36.7806158 C21.878,36.9136158 22.134,36.9946158 22.411,36.9946158 L23.289,36.9946158 C23.423,37.3616158 23.58,37.7216158 23.758,38.0726158 L22.862,38.9226158 C22.569,39.1986158 22.401,39.5876158 22.401,39.9906158 C22.401,40.3926158 22.569,40.7816158 22.861,41.0576158 L23.909,42.0506158 L21,43.8286158 Z M24,11.4116158 L24,4.74861578 L39,13.5726158 L39,23.2066158 C38.967,23.2336158 38.927,23.2446158 38.897,23.2746158 L38.026,24.1456158 C37.672,23.9746158 37.31,23.8246158 36.941,23.6956158 L36.941,22.4646158 C36.941,21.6546158 36.282,20.9946158 35.471,20.9946158 L33,20.9946158 L33,17.0006158 C33,16.6376158 32.802,16.3026158 32.485,16.1266158 L24,11.4116158 Z M44.471,29.9946158 L43.24,29.9946158 C43.111,29.6256158 42.961,29.2636158 42.79,28.9096158 L43.661,28.0386158 C44.234,27.4656158 44.234,26.5326158 43.661,25.9596158 L41,23.2986158 L41,13.0006158 C41,12.6456158 40.812,12.3186158 40.506,12.1386158 L23.506,2.13861578 C23.199,1.95761578 22.815,1.95461578 22.503,2.13261578 C22.192,2.31061578 22,2.64161578 22,3.00061578 L22,12.0006158 C22,12.3636158 22.197,12.6986158 22.514,12.8746158 L31,17.5886158 L31,21.0606158 C30.39,21.2396158 29.941,21.7976158 29.941,22.4646158 L29.941,23.7456158 C29.573,23.8766158 29.212,24.0286158 28.86,24.2026158 L28.305,23.6346158 C28.047,23.2406158 27.649,22.9806158 27.189,22.9126158 C26.708,22.8406158 26.219,22.9946158 25.897,23.3216158 L23.545,25.7196158 L21.65,23.3406158 L26.708,17.0006158 L24.462,17.0006158 L20,22.2416158 L20,17.0006158 L18,17.0006158 L18,30.0006158 L20,30.0006158 L20,24.0006158 L22.962,27.7546158 C23.029,27.8846158 23.097,28.0146158 23.205,28.1246158 L23.458,28.3826158 L24.056,29.1416158 C23.899,29.4796158 23.753,29.8236158 23.634,30.1766158 C23.056,30.0916158 22.098,29.9546158 21.444,30.5196158 C21.12,30.7996158 20.941,31.2016158 20.941,31.6496158 L20.941,34.7996158 L12,29.4336158 L12,17.5546158 L19.53,12.8486158 C19.822,12.6656158 20,12.3456158 20,12.0006158 L20,3.00061578 C20,2.63661578 19.802,2.30261578 19.484,2.12561578 C19.167,1.94861578 18.779,1.95961578 18.469,2.15261578 L2.469,12.1526158 C2.177,12.3356158 2,12.6556158 2,13.0006158 L2,34.0006158 C2,34.3486158 2.181,34.6716158 2.478,34.8536158 L20.478,45.8536158 C20.638,45.9516158 20.819,46.0006158 21,46.0006158 C21.18,46.0006158 21.361,45.9516158 21.521,45.8536158 L25.413,43.4756158 L25.712,43.7596158 C26.282,44.2976158 27.17,44.2956158 27.734,43.7596158 L28.721,42.8236158 C29.118,43.0086158 29.525,43.1696158 29.941,43.3066158 L29.941,44.5246158 C29.941,45.3346158 30.6,45.9946158 31.411,45.9946158 L35.471,45.9946158 C36.282,45.9946158 36.941,45.3346158 36.941,44.5246158 L36.941,43.2326158 C37.311,43.1046158 37.673,42.9546158 38.028,42.7856158 L38.902,43.6516158 C39.471,44.2166158 40.4,44.2176158 40.971,43.6516158 L43.653,40.9956158 C43.933,40.7176158 44.087,40.3466158 44.087,39.9516158 C44.087,39.5566158 43.933,39.1856158 43.652,38.9076158 L42.793,38.0566158 C42.962,37.7096158 43.111,37.3556158 43.238,36.9946158 L44.471,36.9946158 C45.282,36.9946158 45.941,36.3346158 45.941,35.5246158 L45.941,31.4646158 C45.941,30.6546158 45.282,29.9946158 44.471,29.9946158 L44.471,29.9946158 Z" id="Fill-4" fill="#FFFFFF"></path></svg>
sprite Arch_Amazon_Elastic_Container_Registry_48_c <svg width="64px" height="64px" viewBox="0 0 64 64" version="1.1" xmlns="http://www.w3.org/2000/svg" xmlns:xlink="http://www.w3.org/1999/xlink"><path id="rect" fill="#FF9900" d="M5 0h54s5 0 5 5v54s0 5 -5 5h-54s-5 0 -5 -5v-54s0 -5 5 -5" /><path d="M30.726,29.9221953 C30.279,30.1827125 30,30.6666734 30,31.1847019 L30,51.5341041 L15,42.8578781 L15,23.0114745 L32.172,13.0777519 L47.088,20.4574036 L30.726,29.9221953 Z M49.704,20.42033 C49.704,19.9023015 49.426,19.4203446 48.921,19.1317717 L32.879,11.1960158 C32.433,10.9354986 31.876,10.9344966 31.428,11.1940118 L13.729,21.4333413 C13.28,21.6928565 13,22.1768174 13,22.6968499 L13,43.1725028 C13,43.6905313 13.279,44.1744922 13.728,44.4350094 L29.816,53.7414867 C30.04,53.8717454 30.292,53.9368747 30.545,53.9368747 C30.796,53.9368747 31.047,53.8727473 31.272,53.7424887 C31.721,53.4829735 32,52.9990126 32,52.4789801 L32,31.4993265 L48.978,21.6778267 C49.426,21.4193134 49.704,20.9373565 49.704,20.42033 L49.704,20.42033 Z M50,42.9410432 L37.004,51.5331022 L37.004,44.4099597 L43.603,39.4160446 C43.853,39.2266686 44,38.9300798 44,38.6164571 L44,30.4803034 L50,27.0064062 L50,42.9410432 Z M51.273,24.7990236 C50.825,24.5385063 50.267,24.5375044 49.817,24.7990236 L42.879,28.812993 C42.639,28.9422497 42,29.287936 42,30.0304101 L42,38.1174664 L35.663,42.9129875 C35.255,43.1805187 35.004,43.6414338 35.004,44.1344126 L35.004,52.5461134 C35.004,53.0661459 35.284,53.5501068 35.733,53.809622 C35.951,53.9348707 36.195,54 36.445,54 C36.709,54 36.982,53.9278568 37.239,53.7775584 L51.275,44.4971327 C51.722,44.2376175 52,43.7536566 52,43.2356281 L52,26.0625322 C52,25.5424997 51.721,25.0585388 51.273,24.7990236 L51.273,24.7990236 Z" id="Amazon-Elastic-Container-Registry_Icon_48_Squid" fill="#FFFFFF" fill="#FFFFFF"></path></svg>
sprite Arch_Amazon_Elastic_Container_Service_48_c <svg width="64px" height="64px" viewBox="0 0 64 64" version="1.1" xmlns="http://www.w3.org/2000/svg" xmlns:xlink="http://www.w3.org/1999/xlink"><path id="rect" fill="#FF9900" d="M5 0h54s5 0 5 5v54s0 5 -5 5h-54s-5 0 -5 -5v-54s0 -5 5 -5" /><path d="M50,36.3822466 L44,33.3822885 L44,25.0004058 C44,24.6374109 43.803,24.3024156 43.485,24.1264181 L35,19.412484 L35,12.7495773 L50,21.5724538 L50,36.3822466 Z M51.507,20.1384739 L34.507,10.1386138 C34.199,9.95761637 33.815,9.95461641 33.504,10.1326139 C33.192,10.3106114 33,10.6416068 33,11.0006018 L33,20.0004758 C33,20.3634707 33.197,20.6984661 33.515,20.8744636 L42,25.5883976 L42,34.0002799 C42,34.3792746 42.214,34.7252697 42.553,34.8952674 L50.553,38.8952114 C50.694,38.9652104 50.847,39.0002099 51,39.0002099 C51.183,39.0002099 51.365,38.9502106 51.525,38.851212 C51.82,38.6682146 52,38.3472191 52,38.0002239 L52,21.0004618 C52,20.6464668 51.812,20.3184714 51.507,20.1384739 L51.507,20.1384739 Z M32,51.8280304 L15,41.4391758 L15,21.5544541 L29,12.8045765 L29,19.4464836 L21.47,24.1524177 C21.178,24.3354152 21,24.6554107 21,25.0004058 L21,38.0002239 C21,38.351219 21.185,38.6772144 21.485,38.8572119 L31.485,44.857128 C31.789,45.0401254 32.167,45.0481253 32.479,44.8781277 L42.988,39.1462079 L48.035,42.0291675 L32,51.8280304 Z M50.496,41.1321801 L43.496,37.1322361 C43.194,36.9592385 42.825,36.9562385 42.521,37.1222362 L32.023,42.8481561 L23,37.4342318 L23,25.5543981 L30.53,20.848464 C30.822,20.6654665 31,20.345471 31,20.0004758 L31,11.0006018 C31,10.6366069 30.803,10.3026115 30.484,10.125614 C30.168,9.9486165 29.778,9.95961634 29.47,10.1526136 L13.47,20.1524737 C13.178,20.3354711 13,20.6554667 13,21.0004618 L13,42.0001679 C13,42.3481631 13.182,42.6711585 13.479,42.854156 L31.479,53.854002 C31.639,53.9510007 31.819,54 32,54 C32.181,54 32.361,53.9510007 32.521,53.854002 L50.521,42.854156 C50.823,42.6691586 51.005,42.3391632 51.0001004,41.9851681 C50.995,41.6321731 50.803,41.3071776 50.496,41.1321801 L50.496,41.1321801 Z" id="Amazon-Elastic-Container-Service_Icon_48_Squid" fill="#FFFFFF" fill="#FFFFFF"></path></svg>
sprite Arch_Amazon_Elastic_Kubernetes_Service_48_c <svg width="64px" height="64px" viewBox="0 0 64 64" version="1.1" xmlns="http://www.w3.org/2000/svg" xmlns:xlink="http://www.w3.org/1999/xlink"><path id="rect" fill="#FF9900" d="M5 0h54s5 0 5 5v54s0 5 -5 5h-54s-5 0 -5 -5v-54s0 -5 5 -5" /><path d="M37.708,25.0004058 L32.65,31.3403171 L37.967,38.0212236 L35.752,38.0212236 L31,32.0003079 L31,38.0002239 L29,38.0002239 L29,25.0004058 L31,25.0004058 L31,30.2413325 L35.463,25.0004058 L37.708,25.0004058 Z M50,36.3822466 L44,33.3822885 L44,25.0004058 C44,24.6374109 43.803,24.3024156 43.485,24.1264181 L35,19.412484 L35,12.7495773 L50,21.5724538 L50,36.3822466 Z M51.507,20.1384739 L34.507,10.1386138 C34.199,9.95761637 33.815,9.95461641 33.504,10.1326139 C33.192,10.3106114 33,10.6416068 33,11.0006018 L33,20.0004758 C33,20.3634707 33.197,20.6984661 33.515,20.8744636 L42,25.5883976 L42,34.0002799 C42,34.3792746 42.214,34.7252697 42.553,34.8952674 L50.553,38.8952114 C50.694,38.9652104 50.847,39.0002099 51,39.0002099 C51.183,39.0002099 51.365,38.9502106 51.525,38.851212 C51.82,38.6682146 52,38.3472191 52,38.0002239 L52,21.0004618 C52,20.6464668 51.812,20.3184714 51.507,20.1384739 L51.507,20.1384739 Z M32,51.8280304 L15,41.4391758 L15,21.5544541 L29,12.8045765 L29,19.4464836 L21.47,24.1524177 C21.178,24.3354152 21,24.6554107 21,25.0004058 L21,38.0002239 C21,38.351219 21.185,38.6772144 21.485,38.8572119 L31.485,44.857128 C31.789,45.0401254 32.167,45.0481253 32.479,44.8781277 L42.988,39.1462079 L48.035,42.0291675 L32,51.8280304 Z M50.496,41.1321801 L43.496,37.1322361 C43.194,36.9592385 42.825,36.9562385 42.521,37.1222362 L32.023,42.8481561 L23,37.4342318 L23,25.5543981 L30.53,20.848464 C30.822,20.6654665 31,20.345471 31,20.0004758 L31,11.0006018 C31,10.6366069 30.803,10.3026115 30.484,10.125614 C30.168,9.9486165 29.778,9.95961634 29.47,10.1526136 L13.47,20.1524737 C13.178,20.3354711 13,20.6554667 13,21.0004618 L13,42.0001679 C13,42.3481631 13.182,42.6711585 13.479,42.854156 L31.479,53.854002 C31.639,53.9510007 31.819,54 32,54 C32.181,54 32.361,53.9510007 32.521,53.854002 L50.521,42.854156 C50.823,42.6691586 51.005,42.3391632 51.0001004,41.9851681 C50.995,41.6321731 50.803,41.3071776 50.496,41.1321801 L50.496,41.1321801 Z" id="Amazon-Elastic-Container-Kubernetes_Icon_48_Squid" fill="#FFFFFF" fill="#FFFFFF"></path></svg>
sprite Arch_AWS_Fargate_48_c <svg width="64px" height="64px" viewBox="0 0 64 64" version="1.1" xmlns="http://www.w3.org/2000/svg" xmlns:xlink="http://www.w3.org/1999/xlink"><path id="rect" fill="#FF9900" d="M5 0h54s5 0 5 5v54s0 5 -5 5h-54s-5 0 -5 -5v-54s0 -5 5 -5" /><path d="M42.4670854,46.382 L42.4670854,42.618 L44.4605025,41.618 L44.4605025,45.382 L42.4670854,46.382 Z M38.4802513,41.618 L40.4736684,42.618 L40.4736684,46.382 L38.4802513,45.382 L38.4802513,41.618 Z M33.4967085,51.382 L33.4967085,47.618 L35.4901256,46.618 L35.4901256,50.382 L33.4967085,51.382 Z M29.5098744,46.618 L31.5032915,47.618 L31.5032915,51.382 L29.5098744,50.382 L29.5098744,46.618 Z M24.5263316,46.382 L24.5263316,42.618 L26.5197487,41.618 L26.5197487,45.382 L24.5263316,46.382 Z M20.5394975,41.618 L22.5329146,42.618 L22.5329146,46.382 L20.5394975,45.382 L20.5394975,41.618 Z M23.5296231,39.118 L25.287817,40 L23.5296231,40.882 L21.7714292,40 L23.5296231,39.118 Z M32.5,44.118 L34.2581939,45 L32.5,45.882 L30.7418061,45 L32.5,44.118 Z M41.4703769,39.118 L43.2285708,40 L41.4703769,40.882 L39.712183,40 L41.4703769,39.118 Z M45.9027398,39.106 L41.9159056,37.106 C41.6358305,36.965 41.3049233,36.965 41.0248482,37.106 L37.038014,39.106 C36.7001298,39.275 36.4868342,39.621 36.4868342,40 L36.4868342,43.882 L32.9455287,42.106 C32.6654536,41.965 32.3345464,41.965 32.0544713,42.106 L28.5131658,43.882 L28.5131658,40 C28.5131658,39.621 28.2998702,39.275 27.961986,39.106 L23.9751518,37.106 C23.6950767,36.965 23.3641695,36.965 23.0840944,37.106 L19.0972602,39.106 C18.759376,39.275 18.5460804,39.621 18.5460804,40 L18.5460804,46 C18.5460804,46.379 18.759376,46.725 19.0972602,46.895 L23.0840944,48.895 C23.2236336,48.965 23.3771267,49 23.5296231,49 C23.6821195,49 23.8356126,48.965 23.9751518,48.895 L27.5164573,47.118 L27.5164573,51 C27.5164573,51.379 27.7297529,51.725 28.0676371,51.895 L32.0544713,53.895 C32.1940105,53.965 32.3475036,54 32.5,54 C32.6524964,54 32.8059895,53.965 32.9455287,53.895 L36.9323629,51.895 C37.2702471,51.725 37.4835427,51.379 37.4835427,51 L37.4835427,47.118 L41.0248482,48.895 C41.1643874,48.965 41.3178805,49 41.4703769,49 C41.6228733,49 41.7763664,48.965 41.9159056,48.895 L45.9027398,46.895 C46.240624,46.725 46.4539196,46.379 46.4539196,46 L46.4539196,40 C46.4539196,39.621 46.240624,39.275 45.9027398,39.106 L45.9027398,39.106 Z M54,28.09 C54,33.193 42.9225812,35.946 32.5,35.946 C22.0774188,35.946 11,33.193 11,28.09 C11,25.629 13.6801493,23.474 18.5470771,22.023 L19.115201,23.94 C15.3386723,25.066 12.9934171,26.656 12.9934171,28.09 C12.9934171,30.854 21.3358676,33.946 32.5,33.946 C43.6641324,33.946 52.0065829,30.854 52.0065829,28.09 C52.0065829,26.656 49.6613277,25.066 45.884799,23.94 L46.4529229,22.023 C51.3198507,23.474 54,25.629 54,28.09 L54,28.09 Z M32.5,12.064 L40.5474248,15 L32.5,17.936 L24.4525752,15 L32.5,12.064 Z M41.3677159,28.648 C39.8118539,29.348 37.2134347,30.164 33.4967085,30.293 L33.4967085,19.701 L42.4670854,16.428 L42.4670854,26.913 C42.4670854,27.667 42.0355106,28.348 41.3677159,28.648 L41.3677159,28.648 Z M22.5329146,26.913 L22.5329146,16.428 L31.5032915,19.701 L31.5032915,30.293 C27.7865653,30.164 25.1881461,29.348 23.6322841,28.648 C22.9644894,28.348 22.5329146,27.667 22.5329146,26.913 L22.5329146,26.913 Z M22.8159798,30.473 C24.6868017,31.315 27.8852394,32.319 32.5,32.319 C37.1147606,32.319 40.3131983,31.315 42.1840202,30.473 C43.5674517,29.851 44.4605025,28.454 44.4605025,26.913 L44.4605025,15 C44.4605025,14.58 44.1983682,14.204 43.8046683,14.06 L32.8408743,10.06 C32.6206017,9.98 32.3793983,9.98 32.1591257,10.06 L21.1953317,14.06 C20.8016318,14.204 20.5394975,14.58 20.5394975,15 L20.5394975,26.913 C20.5394975,28.454 21.4325483,29.851 22.8159798,30.473 L22.8159798,30.473 Z" id="AWS-Fargate_Icon_48_Squid" fill="#FFFFFF" fill="#FFFFFF"></path></svg>
sprite Arch_Red_Hat_OpenShift_48_c <svg width="64px" height="64px" viewBox="0 0 64 64" version="1.1" xmlns="http://www.w3.org/2000/svg" xmlns:xlink="http://www.w3.org/1999/xlink"><path id="rect" fill="#FF9900" d="M5 0h54s5 0 5 5v54s0 5 -5 5h-54s-5 0 -5 -5v-54s0 -5 5 -5" /><path d="M39.7073636,14.5585139 C39.4173636,14.1025139 39.1053636,13.6675139 38.7723636,13.2545139 L43.6093636,11.2455139 C43.8883636,11.6835139 44.2493636,12.2635139 44.5613636,12.7925139 L39.7073636,14.5585139 Z M43.3423636,23.9105139 L44.1993636,23.5975139 C44.2303636,26.4515139 43.6193636,29.2915139 42.4083636,31.8855139 C37.9213636,41.5055139 26.4443636,45.6825139 16.8243636,41.1985139 C14.2283636,39.9875139 11.9343636,38.2045139 10.1243636,35.9995139 L12.5703636,35.1095139 C12.5753636,35.1075139 12.5793636,35.1045139 12.5843636,35.1025139 L15.3173636,34.1075139 C16.3973636,35.1185139 17.6263636,35.9485139 18.9773636,36.5795139 C22.3983636,38.1755139 26.2413636,38.3405139 29.8003636,37.0465139 C33.3563636,35.7515139 36.1933636,33.1535139 37.7893636,29.7315139 C38.4193636,28.3835139 38.8133636,26.9585139 38.9913636,25.4915139 L43.3423636,23.9105139 Z M3.21036359,30.5075139 L8.01236359,28.7595139 C8.51236359,30.5725139 9.36136359,32.2565139 10.5163636,33.7275139 L5.55036359,35.5355139 C4.53136359,33.9775139 3.74736359,32.2925139 3.21036359,30.5075139 L3.21036359,30.5075139 Z M13.6783636,22.6005139 C13.6933636,23.0615139 13.7323636,23.5255139 13.7943636,23.9895139 L8.91436359,25.7655139 C8.82436359,25.3085139 8.75336359,24.8565139 8.69836359,24.4125139 L13.6783636,22.6005139 Z M32.7443636,17.6295139 C32.4693636,17.7295139 32.2513636,17.9455139 32.1483636,18.2195139 C32.0473636,18.4945139 32.0703636,18.7995139 32.2133636,19.0555139 C33.3873636,21.1615139 33.9133636,23.5285139 33.7353636,25.9005139 C33.7103636,26.2395139 33.8573636,26.5675139 34.1293636,26.7725139 C34.3053636,26.9065139 34.5183636,26.9755139 34.7323636,26.9755139 C34.8483636,26.9755139 34.9633636,26.9555139 35.0743636,26.9155139 L36.8383636,26.2745139 C36.6493636,27.1705139 36.3693636,28.0455139 35.9773636,28.8855139 C34.6063636,31.8245139 32.1703636,34.0555139 29.1153636,35.1675139 C26.0623636,36.2795139 22.7623636,36.1375139 19.8223636,34.7665139 C18.4933636,34.1465139 17.3033636,33.3015139 16.2843636,32.2545139 C16.0083636,31.9725139 15.5943636,31.8775139 15.2263636,32.0125139 L12.5183636,32.9985139 C11.1643636,31.4545139 10.2283636,29.5985139 9.78636359,27.5765139 L15.2553636,25.5855139 C15.7173636,25.4175139 15.9883636,24.9385139 15.8953636,24.4565139 C15.6873636,23.3795139 15.6233636,22.2965139 15.7033636,21.2375139 C15.7283636,20.8985139 15.5813636,20.5695139 15.3113636,20.3645139 C15.0393636,20.1595139 14.6843636,20.1075139 14.3643636,20.2215139 L12.9933636,20.7205139 C13.1823636,19.8175139 13.4583636,18.9425139 13.8443636,18.1135139 C16.6773636,12.0385139 23.9243636,9.40151392 30.0003636,12.2335139 C31.3053636,12.8425139 32.4933636,13.6895139 33.5303636,14.7505139 C33.8163636,15.0435139 34.2523636,15.1325139 34.6293636,14.9755139 L36.8333636,14.0595139 C37.2783636,14.5585139 37.6743636,15.1165139 38.0413636,15.7005139 L32.7443636,17.6295139 Z M35.7623636,24.5375139 C35.7003636,22.6725139 35.2693636,20.8375139 34.4863636,19.1225139 L39.2873636,17.3745139 C40.0243636,19.0875139 40.5073636,20.8825139 40.7273636,22.7325139 L35.7623636,24.5375139 Z M5.61636359,23.4055139 C5.59036359,20.5505139 6.20336359,17.7085139 7.41336359,15.1145139 C11.9003636,5.49351392 23.3763636,1.31951392 32.9973636,5.80251392 C35.5023636,6.97151392 37.7353636,8.68251392 39.5173636,10.7795139 L34.4723636,12.8745139 C33.3853636,11.8625139 32.1683636,11.0375139 30.8463636,10.4205139 C23.7693636,7.12151392 15.3303636,10.1945139 12.0313636,17.2685139 C11.4123636,18.5985139 11.0213636,20.0225139 10.8413636,21.5035139 L5.61636359,23.4055139 Z M46.9003636,12.8975139 C46.3853636,11.8315139 44.9003636,9.55151392 44.8383636,9.45451392 C44.5753636,9.05051392 44.0613636,8.89351392 43.6163636,9.07751392 L41.4393636,9.98051392 C39.4103636,7.43951392 36.8003636,5.37051392 33.8433636,3.98951392 C23.2183636,-0.962486081 10.5533636,3.65051392 5.60136359,14.2685139 C4.05836359,17.5775139 3.39436359,21.2495139 3.68136359,24.8895139 C3.70536359,25.2015139 3.87436359,25.4825139 4.13736359,25.6525139 C4.39836359,25.8215139 4.72836359,25.8565139 5.01936359,25.7505139 L6.77436359,25.1125139 C6.86136359,25.7175139 6.98536359,26.3325139 7.12936359,26.9525139 L1.65836359,28.9445139 C1.17636359,29.1195139 0.905363592,29.6305139 1.03036359,30.1285139 C1.68536359,32.7245139 2.80136359,35.1435139 4.34736359,37.3195139 C4.53936359,37.5895139 4.84636359,37.7405139 5.16236359,37.7405139 C5.27636359,37.7405139 5.39236359,37.7205139 5.50436359,37.6805139 L8.15336359,36.7165139 C10.2153636,39.4035139 12.9013636,41.5755139 15.9783636,43.0115139 C18.8753636,44.3615139 21.9233636,45.0005139 24.9263636,45.0005139 C32.9353636,44.9995139 40.6183636,40.4545139 44.2213636,32.7315139 C45.7653636,29.4235139 46.4263636,25.7505139 46.1333636,22.1125139 C46.1073636,21.8015139 45.9383636,21.5195139 45.6763636,21.3505139 C45.4143636,21.1835139 45.0853636,21.1465139 44.7943636,21.2535139 L42.6583636,22.0305139 L42.6583636,22.0305139 L42.6523636,22.0325139 C42.3703636,20.0265139 41.7913636,18.0865139 40.9543636,16.2335139 L46.3423636,14.2735139 C46.6073636,14.1765139 46.8203636,13.9715139 46.9273636,13.7095139 C47.0333636,13.4475139 47.0233636,13.1525139 46.9003636,12.8975139 L46.9003636,12.8975139 Z" id="Fill-5" fill="#FFFFFF"></path></svg>
sprite Res_Amazon_Elastic_Container_Registry_Image_48_Dark_c <svg width="48px" height="48px" viewBox="0 0 48 48" version="1.1" xmlns="http://www.w3.org/2000/svg" xmlns:xlink="http://www.w3.org/1999/xlink"><path id="rect" fill="#FF9900" d="M5 0h38s5 0 5 5v38s0 5 -5 5h-38s-5 0 -5 -5v-38s0 -5 5 -5" /><path d="M19.9998,14.9998 C21.6538,14.9998 22.9998,16.3458 22.9998,17.9998 C22.9998,19.6538 21.6538,20.9998 19.9998,20.9998 C18.3458,20.9998 16.9998,19.6538 16.9998,17.9998 C16.9998,16.3458 18.3458,14.9998 19.9998,14.9998 L19.9998,14.9998 Z M19.9998,22.9998 C22.7568,22.9998 24.9998,20.7568 24.9998,17.9998 C24.9998,15.2428 22.7568,12.9998 19.9998,12.9998 C17.2428,12.9998 14.9998,15.2428 14.9998,17.9998 C14.9998,20.7568 17.2428,22.9998 19.9998,22.9998 L19.9998,22.9998 Z M3.9998,43.9998 L3.9998,34.4138 L11.9998,26.4138 L27.2928,41.7068 L28.7068,40.2928 L20.9138,32.4998 L31.9998,21.4138 L43.9998,33.4138 L43.9998,43.9998 L3.9998,43.9998 Z M43.9998,3.9998 L43.9998,30.5858 L32.7068,19.2928 C32.3158,18.9018 31.6838,18.9018 31.2928,19.2928 L19.4998,31.0858 L12.7068,24.2928 C12.3158,23.9018 11.6838,23.9018 11.2928,24.2928 L3.9998,31.5858 L3.9998,3.9998 L43.9998,3.9998 Z M44.9998,1.9998 L2.9998,1.9998 C2.4468,1.9998 1.9998,2.4468 1.9998,2.9998 L1.9998,44.9998 C1.9998,45.5528 2.4468,45.9998 2.9998,45.9998 L44.9998,45.9998 C45.5528,45.9998 45.9998,45.5528 45.9998,44.9998 L45.9998,2.9998 C45.9998,2.4468 45.5528,1.9998 44.9998,1.9998 L44.9998,1.9998 Z" id="Amazon-Elastic-Container-Registry_Image_Resource-Icon_light-bg" fill="#FFFFFF" fill="#FFFFFF"></path></svg>
sprite Res_Amazon_Elastic_Container_Registry_Registry_48_Dark_c <svg width="48px" height="48px" viewBox="0 0 48 48" version="1.1" xmlns="http://www.w3.org/2000/svg" xmlns:xlink="http://www.w3.org/1999/xlink"><path id="rect" fill="#FF9900" d="M5 0h38s5 0 5 5v38s0 5 -5 5h-38s-5 0 -5 -5v-38s0 -5 5 -5" /><path d="M35.207,37.954 L37.207,37.954 L37.207,34.459 L35.207,34.459 L35.207,37.954 Z M31.711,37.954 L33.711,37.954 L33.711,34.459 L31.711,34.459 L31.711,37.954 Z M28.216,37.954 L30.216,37.954 L30.216,34.459 L28.216,34.459 L28.216,37.954 Z M26.721,39.576 L38.702,39.576 L38.702,32.837 L26.721,32.837 L26.721,39.576 Z M39.702,30.837 L25.72,30.837 C25.168,30.837 24.72,31.284 24.72,31.837 L24.72,40.576 C24.72,41.129 25.168,41.576 25.72,41.576 L39.702,41.576 C40.255,41.576 40.702,41.129 40.702,40.576 L40.702,31.837 C40.702,31.284 40.255,30.837 39.702,30.837 L39.702,30.837 Z M35.207,25.721 L37.207,25.721 L37.207,22.225 L35.207,22.225 L35.207,25.721 Z M31.711,25.721 L33.711,25.721 L33.711,22.225 L31.711,22.225 L31.711,25.721 Z M28.216,25.721 L30.216,25.721 L30.216,22.225 L28.216,22.225 L28.216,25.721 Z M26.721,27.342 L38.702,27.342 L38.702,20.604 L26.721,20.604 L26.721,27.342 Z M39.702,18.604 L25.72,18.604 C25.168,18.604 24.72,19.051 24.72,19.604 L24.72,28.342 C24.72,28.895 25.168,29.342 25.72,29.342 L39.702,29.342 C40.255,29.342 40.702,28.895 40.702,28.342 L40.702,19.604 C40.702,19.051 40.255,18.604 39.702,18.604 L39.702,18.604 Z M35.207,13.486 L37.207,13.486 L37.207,9.991 L35.207,9.991 L35.207,13.486 Z M31.711,13.486 L33.711,13.486 L33.711,9.991 L31.711,9.991 L31.711,13.486 Z M28.216,13.486 L30.216,13.486 L30.216,9.991 L28.216,9.991 L28.216,13.486 Z M26.721,15.108 L38.702,15.108 L38.702,8.369 L26.721,8.369 L26.721,15.108 Z M39.702,6.369 L25.72,6.369 C25.168,6.369 24.72,6.817 24.72,7.369 L24.72,16.108 C24.72,16.661 25.168,17.108 25.72,17.108 L39.702,17.108 C40.255,17.108 40.702,16.661 40.702,16.108 L40.702,7.369 C40.702,6.817 40.255,6.369 39.702,6.369 L39.702,6.369 Z M17.729,37.954 L19.729,37.954 L19.729,34.459 L17.729,34.459 L17.729,37.954 Z M14.234,37.954 L16.234,37.954 L16.234,34.459 L14.234,34.459 L14.234,37.954 Z M10.738,37.954 L12.738,37.954 L12.738,34.459 L10.738,34.459 L10.738,37.954 Z M9.243,39.576 L21.224,39.576 L21.224,32.837 L9.243,32.837 L9.243,39.576 Z M22.224,30.837 L8.243,30.837 C7.69,30.837 7.243,31.284 7.243,31.837 L7.243,40.576 C7.243,41.129 7.69,41.576 8.243,41.576 L22.224,41.576 C22.777,41.576 23.224,41.129 23.224,40.576 L23.224,31.837 C23.224,31.284 22.777,30.837 22.224,30.837 L22.224,30.837 Z M17.729,25.721 L19.729,25.721 L19.729,22.225 L17.729,22.225 L17.729,25.721 Z M14.234,25.721 L16.234,25.721 L16.234,22.225 L14.234,22.225 L14.234,25.721 Z M10.738,25.721 L12.738,25.721 L12.738,22.225 L10.738,22.225 L10.738,25.721 Z M9.243,27.342 L21.224,27.342 L21.224,20.604 L9.243,20.604 L9.243,27.342 Z M22.224,18.604 L8.243,18.604 C7.69,18.604 7.243,19.051 7.243,19.604 L7.243,28.342 C7.243,28.895 7.69,29.342 8.243,29.342 L22.224,29.342 C22.777,29.342 23.224,28.895 23.224,28.342 L23.224,19.604 C23.224,19.051 22.777,18.604 22.224,18.604 L22.224,18.604 Z M17.729,13.486 L19.729,13.486 L19.729,9.991 L17.729,9.991 L17.729,13.486 Z M14.234,13.486 L16.234,13.486 L16.234,9.991 L14.234,9.991 L14.234,13.486 Z M10.738,13.486 L12.738,13.486 L12.738,9.991 L10.738,9.991 L10.738,13.486 Z M9.243,15.108 L21.224,15.108 L21.224,8.369 L9.243,8.369 L9.243,15.108 Z M22.224,6.369 L8.243,6.369 C7.69,6.369 7.243,6.817 7.243,7.369 L7.243,16.108 C7.243,16.661 7.69,17.108 8.243,17.108 L22.224,17.108 C22.777,17.108 23.224,16.661 23.224,16.108 L23.224,7.369 C23.224,6.817 22.777,6.369 22.224,6.369 L22.224,6.369 Z M43.945,39.497 C43.945,41.95 41.95,43.945 39.497,43.945 L8.448,43.945 C5.995,43.945 4,41.95 4,39.497 L4,8.448 C4,5.995 5.995,4 8.448,4 L39.497,4 C41.95,4 43.945,5.995 43.945,8.448 L43.945,39.497 Z M39.497,2 L8.448,2 C4.892,2 2,4.893 2,8.448 L2,39.497 C2,43.053 4.892,45.945 8.448,45.945 L39.497,45.945 C43.053,45.945 45.945,43.053 45.945,39.497 L45.945,8.448 C45.945,4.893 43.053,2 39.497,2 L39.497,2 Z" id="Amazon-Elastic-Container-Registry-Registry_Resource-Icon_light-bg" fill="#FFFFFF" fill="#FFFFFF"></path></svg>
sprite Res_Amazon_Elastic_Container_Service_Container_1_48_Dark_c <svg width="48px" height="48px" viewBox="0 0 48 48" version="1.1" xmlns="http://www.w3.org/2000/svg" xmlns:xlink="http://www.w3.org/1999/xlink"><path id="rect" fill="#FF9900" d="M5 0h38s5 0 5 5v38s0 5 -5 5h-38s-5 0 -5 -5v-38s0 -5 5 -5" /><path d="M38.725,33.7354 L40.725,33.7354 L40.725,14.4974 L38.725,14.4974 L38.725,33.7354 Z M33.479,33.7354 L35.479,33.7354 L35.479,14.4974 L33.479,14.4974 L33.479,33.7354 Z M28.232,33.7354 L30.232,33.7354 L30.232,14.4974 L28.232,14.4974 L28.232,33.7354 Z M22.986,33.7354 L24.986,33.7354 L24.986,14.4974 L22.986,14.4974 L22.986,33.7354 Z M17.739,33.7354 L19.739,33.7354 L19.739,14.4974 L17.739,14.4974 L17.739,33.7354 Z M12.493,33.7354 L14.493,33.7354 L14.493,14.4974 L12.493,14.4974 L12.493,33.7354 Z M7.246,33.7354 L9.246,33.7354 L9.246,14.4974 L7.246,14.4974 L7.246,33.7354 Z M3.999,36.2324 L43.972,36.2324 L43.972,12.0004 L3.999,12.0004 L3.999,36.2324 Z M44.972,9.9994 L3,9.9994 C2.447,9.9994 2,10.4474 2,10.9994 L2,37.2324 C2,37.7844 2.447,38.2324 3,38.2324 L44.972,38.2324 C45.525,38.2324 45.972,37.7844 45.972,37.2324 L45.972,10.9994 C45.972,10.4474 45.525,9.9994 44.972,9.9994 L44.972,9.9994 Z" id="Amazon-Elastic-Container-Service-Container-1_Resource-Icon_light-bg" fill="#FFFFFF" fill="#FFFFFF"></path></svg>
sprite Res_Amazon_Elastic_Container_Service_Container_2_48_Dark_c <svg width="48px" height="48px" viewBox="0 0 48 48" version="1.1" xmlns="http://www.w3.org/2000/svg" xmlns:xlink="http://www.w3.org/1999/xlink"><path id="rect" fill="#FF9900" d="M5 0h38s5 0 5 5v38s0 5 -5 5h-38s-5 0 -5 -5v-38s0 -5 5 -5" /><path d="M18.863,29.233 L29.102,29.233 L29.102,18.994 L18.863,18.994 L18.863,29.233 Z M17.737,31.014 L17.737,32.857 L19.737,32.857 L19.737,31.234 L21.234,31.234 L21.234,32.857 L23.234,32.857 L23.234,31.234 L24.731,31.234 L24.731,32.857 L26.731,32.857 L26.731,31.234 L28.228,31.234 L28.228,32.857 L30.228,32.857 L30.228,31.014 C30.502,30.861 30.728,30.635 30.882,30.36 L32.725,30.36 L32.725,28.36 L31.102,28.36 L31.102,26.863 L32.725,26.863 L32.725,24.863 L31.102,24.863 L31.102,23.365 L32.725,23.365 L32.725,21.365 L31.102,21.365 L31.102,19.868 L32.725,19.868 L32.725,17.868 L30.882,17.868 C30.729,17.594 30.502,17.367 30.228,17.214 L30.228,15.371 L28.228,15.371 L28.228,16.994 L26.731,16.994 L26.731,15.371 L24.731,15.371 L24.731,16.994 L23.234,16.994 L23.234,15.371 L21.234,15.371 L21.234,16.994 L19.737,16.994 L19.737,15.371 L17.737,15.371 L17.737,17.214 C17.461,17.367 17.236,17.594 17.082,17.868 L15.24,17.868 L15.24,19.868 L16.863,19.868 L16.863,21.365 L15.24,21.365 L15.24,23.365 L16.863,23.365 L16.863,24.863 L15.24,24.863 L15.24,26.863 L16.863,26.863 L16.863,28.36 L15.24,28.36 L15.24,30.36 L17.082,30.36 C17.236,30.635 17.461,30.861 17.737,31.014 L17.737,31.014 Z M39.593,33.731 L41.593,33.731 L41.593,14.498 L39.593,14.498 L39.593,33.731 Z M34.347,33.731 L36.347,33.731 L36.347,14.498 L34.347,14.498 L34.347,33.731 Z M11.616,33.731 L13.616,33.731 L13.616,14.498 L11.616,14.498 L11.616,33.731 Z M6.371,33.731 L8.371,33.731 L8.371,14.498 L6.371,14.498 L6.371,33.731 Z M4,36.228 L43.964,36.228 L43.964,12 L4,12 L4,36.228 Z M44.964,10 L3,10 C2.448,10 2,10.447 2,11 L2,37.228 C2,37.78 2.448,38.228 3,38.228 L44.964,38.228 C45.517,38.228 45.964,37.78 45.964,37.228 L45.964,11 C45.964,10.447 45.517,10 44.964,10 L44.964,10 Z" id="Amazon-Elastic-Container-Service-Container-2_Resource-Icon_light-bg" fill="#FFFFFF" fill="#FFFFFF"></path></svg>
sprite Res_Amazon_Elastic_Container_Service_Container_3_48_Dark_c <svg width="48px" height="48px" viewBox="0 0 48 48" version="1.1" xmlns="http://www.w3.org/2000/svg" xmlns:xlink="http://www.w3.org/1999/xlink"><path id="rect" fill="#FF9900" d="M5 0h38s5 0 5 5v38s0 5 -5 5h-38s-5 0 -5 -5v-38s0 -5 5 -5" /><path d="M26.112,31.6134 L28.861,31.6134 L28.861,29.7384 L26.112,29.7384 L26.112,31.6134 Z M17.117,23.9904 L30.858,23.9904 L30.858,16.3714 L17.117,16.3714 L17.117,23.9904 Z M17.993,31.8624 L29.984,31.8624 L29.984,29.4894 L17.993,29.4894 L17.993,31.8624 Z M16.117,25.9914 L22.989,25.9914 L22.989,27.4894 L16.992,27.4894 C16.44,27.4894 15.992,27.9364 15.992,28.4894 L15.992,32.8624 C15.992,33.4144 16.44,33.8624 16.992,33.8624 L30.984,33.8624 C31.536,33.8624 31.984,33.4144 31.984,32.8624 L31.984,28.4894 C31.984,27.9364 31.536,27.4894 30.984,27.4894 L24.989,27.4894 L24.989,25.9914 L31.859,25.9914 C32.411,25.9914 32.859,25.5434 32.859,24.9914 L32.859,15.3714 C32.859,14.8194 32.411,14.3714 31.859,14.3714 L16.117,14.3714 C15.565,14.3714 15.117,14.8194 15.117,15.3714 L15.117,24.9914 C15.117,25.5434 15.565,25.9914 16.117,25.9914 L16.117,25.9914 Z M39.603,33.7364 L41.603,33.7364 L41.603,14.4984 L39.603,14.4984 L39.603,33.7364 Z M34.357,33.7364 L36.357,33.7364 L36.357,14.4984 L34.357,14.4984 L34.357,33.7364 Z M11.62,33.7364 L13.62,33.7364 L13.62,14.4984 L11.62,14.4984 L11.62,33.7364 Z M6.373,33.7364 L8.373,33.7364 L8.373,14.4984 L6.373,14.4984 L6.373,33.7364 Z M4,36.2344 L43.976,36.2344 L43.976,12.0004 L4,12.0004 L4,36.2344 Z M44.976,9.9994 L3,9.9994 C2.448,9.9994 2,10.4474 2,10.9994 L2,37.2344 C2,37.7864 2.448,38.2344 3,38.2344 L44.976,38.2344 C45.529,38.2344 45.976,37.7864 45.976,37.2344 L45.976,10.9994 C45.976,10.4474 45.529,9.9994 44.976,9.9994 L44.976,9.9994 Z" id="Amazon-Elastic-Container-Service-Container-3_Resource-Icon_light-bg" fill="#FFFFFF" fill="#FFFFFF"></path></svg>
sprite Res_Amazon_Elastic_Container_Service_Copilot_CLI_48_Dark_c <svg width="48px" height="48px" viewBox="0 0 48 48" version="1.1" xmlns="http://www.w3.org/2000/svg" xmlns:xlink="http://www.w3.org/1999/xlink"><path id="rect" fill="#FF9900" d="M5 0h38s5 0 5 5v38s0 5 -5 5h-38s-5 0 -5 -5v-38s0 -5 5 -5" /><path d="M21.53,28.0406411 L9.673,17.2606411 L8.327,18.7406411 L18.469,27.9606411 L8.367,36.2266411 L9.633,37.7746411 L21.53,28.0406411 Z M19,37.0006411 L35,37.0006411 L35,35.0006411 L19,35.0006411 L19,37.0006411 Z M38,18.0006411 C38,17.6376411 37.802,17.3026411 37.485,17.1266411 L29,12.4126411 L29,5.66164113 L44,13.6026411 L44,31.1966411 L38,27.4466411 L38,18.0006411 Z M45.484,33.8746411 C45.802,33.6986411 46,33.3646411 46,33.0006411 L46,13.0006411 C46,12.6296411 45.795,12.2906411 45.467,12.1166411 L28.467,3.11664113 C28.157,2.95164113 27.783,2.96264113 27.484,3.14364113 C27.183,3.32464113 27,3.64964113 27,4.00064113 L27,13.0006411 C27,13.3636411 27.197,13.6986411 27.514,13.8746411 L36,18.5886411 L36,28.0006411 C36,28.3456411 36.177,28.6656411 36.469,28.8486411 L44.469,33.8486411 C44.632,33.9496411 44.815,34.0006411 45,34.0006411 C45.167,34.0006411 45.334,33.9586411 45.484,33.8746411 L45.484,33.8746411 Z M14.023,6.00064113 L23,6.00064113 L23,4.00064113 L14.023,4.00064113 L14.023,6.00064113 Z M44,44.0006411 L4,44.0006411 C2.912,43.9916411 2,43.0756411 2,42.0006411 L2,6.00064113 C2,4.91664113 2.916,4.00064113 4,4.00064113 L10,4.00064113 L10,6.00064113 L4,6.00064113 L4,42.0006411 L44,42.0006411 L44,38.0006411 L46,38.0006411 L46,42.0006411 C46,43.0846411 45.084,44.0006411 44,44.0006411 L44,44.0006411 Z" id="Fill-1" fill="#FFFFFF" fill="#FFFFFF"></path></svg>
sprite Res_Amazon_Elastic_Container_Service_ECS_Anywhere_48_Dark_c <svg width="48px" height="48px" viewBox="0 0 48 48" version="1.1" xmlns="http://www.w3.org/2000/svg" xmlns:xlink="http://www.w3.org/1999/xlink"><path id="rect" fill="#FF9900" d="M5 0h38s5 0 5 5v38s0 5 -5 5h-38s-5 0 -5 -5v-38s0 -5 5 -5" /><path d="M42,30.6721483 L36.52,27.4741483 C36.824,26.3711483 37,25.2161483 37,24.0181483 C37,18.2541483 33.227,13.3601483 28.021,11.6621483 C28.015,11.6531483 28.007,11.6461483 28,11.6381483 L28,4.92614833 L42,13.4211483 L42,30.6721483 Z M23.247,43.7371483 L6,33.7791483 L6,13.3771483 L20,4.92214833 L20,11.6541483 C14.784,13.3461483 11,18.2451483 11,24.0181483 C11,31.1861483 16.832,37.0181483 24,37.0181483 C27.274,37.0181483 30.263,35.7911483 32.551,33.7851483 L36.847,36.2561483 L23.247,43.7371483 Z M29.029,23.0181483 L25,23.0181483 L25,13.0681483 C25.629,13.1261483 26.238,13.2421483 26.832,13.4011483 C28.114,15.3311483 28.895,19.0841483 29.029,23.0181483 L29.029,23.0181483 Z M30.996,23.0181483 C30.913,19.9161483 30.442,16.8901483 29.591,14.5611483 C32.551,16.3181483 34.623,19.4161483 34.949,23.0181483 L30.996,23.0181483 Z M25,25.0181483 L29.043,25.0181483 C28.959,28.8001483 28.257,32.4891483 26.81,34.6401483 C26.223,34.7961483 25.621,34.9111483 25,34.9671483 L25,25.0181483 Z M21.184,34.6391483 C19.782,32.6301483 19.063,28.9211483 19.003,25.0181483 L23,25.0181483 L23,34.9671483 C22.377,34.9111483 21.772,34.7951483 21.184,34.6391483 L21.184,34.6391483 Z M17.008,25.0181483 C17.058,28.1111483 17.505,31.1191483 18.357,33.4431483 C15.425,31.6801483 13.375,28.5981483 13.051,25.0181483 L17.008,25.0181483 Z M17.029,23.0181483 L13.051,23.0181483 C13.383,19.3521483 15.521,16.2061483 18.565,14.4661483 C17.664,16.8751483 17.149,19.9231483 17.029,23.0181483 L17.029,23.0181483 Z M23,23.0181483 L19.029,23.0181483 C19.188,19.2481483 19.947,15.5821483 21.296,13.3681483 C21.85,13.2271483 22.417,13.1211483 23,13.0681483 L23,23.0181483 Z M29.572,33.4851483 C30.44,31.1371483 30.912,28.1101483 30.996,25.0181483 L34.949,25.0181483 C34.622,28.6271483 32.543,31.7311483 29.572,33.4851483 L29.572,33.4851483 Z M43.519,12.0041483 L27.519,2.29514833 C27.209,2.10814833 26.823,2.10114833 26.51,2.27814833 C26.194,2.45614833 26,2.78914833 26,3.15014833 L26,11.1881483 C25.347,11.0871483 24.682,11.0181483 24,11.0181483 C23.318,11.0181483 22.653,11.0871483 22,11.1881483 L22,3.15014833 C22,2.78914833 21.806,2.45714833 21.491,2.27914833 C21.178,2.10214833 20.791,2.10814833 20.483,2.29414833 L4.483,11.9561483 C4.184,12.1371483 4,12.4621483 4,12.8121483 L4,34.3571483 C4,34.7141483 4.19,35.0441483 4.5,35.2231483 L22.735,45.7521483 C22.89,45.8401483 23.063,45.8851483 23.235,45.8851483 C23.401,45.8851483 23.567,45.8441483 23.718,45.7611483 L39.368,37.1521483 C39.685,36.9781483 39.882,36.6471483 39.886,36.2861483 C39.889,35.9241483 39.697,35.5891483 39.385,35.4091483 L34.001,32.3121483 C34.734,31.4281483 35.345,30.4421483 35.826,29.3851483 L42.496,33.2771483 C42.651,33.3681483 42.826,33.4131483 43,33.4131483 C43.172,33.4131483 43.344,33.3691483 43.498,33.2801483 C43.809,33.1021483 44,32.7711483 44,32.4131483 L44,12.8591483 C44,12.5091483 43.817,12.1851483 43.519,12.0041483 L43.519,12.0041483 Z" id="Fill-1" fill="#FFFFFF" fill="#FFFFFF"></path></svg>
sprite Res_Amazon_Elastic_Container_Service_Service_48_Dark_c <svg width="48px" height="48px" viewBox="0 0 48 48" version="1.1" xmlns="http://www.w3.org/2000/svg" xmlns:xlink="http://www.w3.org/1999/xlink"><path id="rect" fill="#FF9900" d="M5 0h38s5 0 5 5v38s0 5 -5 5h-38s-5 0 -5 -5v-38s0 -5 5 -5" /><path d="M24.933,38.213 L37.674,38.213 L37.674,36.213 L24.933,36.213 L24.933,38.213 Z M24.933,28.303 L37.674,28.303 L37.674,26.303 L24.933,26.303 L24.933,28.303 Z M24.933,18.393 L37.674,18.393 L37.674,16.393 L24.933,16.393 L24.933,18.393 Z M19.561,38.337 L21.808,38.337 L21.808,36.09 L19.561,36.09 L19.561,38.337 Z M18.561,40.337 L22.808,40.337 C23.361,40.337 23.808,39.89 23.808,39.337 L23.808,35.09 C23.808,34.537 23.361,34.09 22.808,34.09 L18.561,34.09 C18.009,34.09 17.561,34.537 17.561,35.09 L17.561,39.337 C17.561,39.89 18.009,40.337 18.561,40.337 L18.561,40.337 Z M19.561,28.427 L21.808,28.427 L21.808,26.18 L19.561,26.18 L19.561,28.427 Z M18.561,30.427 L22.808,30.427 C23.361,30.427 23.808,29.98 23.808,29.427 L23.808,25.18 C23.808,24.627 23.361,24.18 22.808,24.18 L18.561,24.18 C18.009,24.18 17.561,24.627 17.561,25.18 L17.561,29.427 C17.561,29.98 18.009,30.427 18.561,30.427 L18.561,30.427 Z M19.561,18.517 L21.808,18.517 L21.808,16.27 L19.561,16.27 L19.561,18.517 Z M18.561,20.517 L22.808,20.517 C23.361,20.517 23.808,20.07 23.808,19.517 L23.808,15.27 C23.808,14.717 23.361,14.27 22.808,14.27 L18.561,14.27 C18.009,14.27 17.561,14.717 17.561,15.27 L17.561,19.517 C17.561,20.07 18.009,20.517 18.561,20.517 L18.561,20.517 Z M16.023,44 L39.506,44 L39.506,12.022 L16.023,12.022 L16.023,44 Z M14.022,11.023 L14.022,39.753 L11.775,39.753 L11.775,7.776 L35.259,7.776 L35.259,10.023 L15.022,10.023 C14.469,10.023 14.022,10.47 14.022,11.023 L14.022,11.023 Z M9.775,6.776 L9.775,35.978 L8,35.978 L8,4 L31.483,4 L31.483,5.776 L10.775,5.776 C10.222,5.776 9.775,6.223 9.775,6.776 L9.775,6.776 Z M40.506,10.023 L37.259,10.023 L37.259,6.776 C37.259,6.223 36.811,5.776 36.259,5.776 L33.483,5.776 L33.483,3 C33.483,2.448 33.036,2 32.483,2 L7,2 C6.447,2 6,2.448 6,3 L6,36.978 C6,37.531 6.447,37.978 7,37.978 L9.775,37.978 L9.775,40.753 C9.775,41.306 10.222,41.753 10.775,41.753 L14.022,41.753 L14.022,45 C14.022,45.553 14.469,46 15.022,46 L40.506,46 C41.058,46 41.506,45.553 41.506,45 L41.506,11.023 C41.506,10.47 41.058,10.023 40.506,10.023 L40.506,10.023 Z" id="Amazon-Elastic-Container-Service_Service_Resource-Icon_light-bg" fill="#FFFFFF" fill="#FFFFFF"></path></svg>
sprite Res_Amazon_Elastic_Container_Service_Task_48_Dark_c <svg width="48px" height="48px" viewBox="0 0 48 48" version="1.1" xmlns="http://www.w3.org/2000/svg" xmlns:xlink="http://www.w3.org/1999/xlink"><path id="rect" fill="#FF9900" d="M5 0h38s5 0 5 5v38s0 5 -5 5h-38s-5 0 -5 -5v-38s0 -5 5 -5" /><path d="M20.25,36.375 L36,36.375 L36,34.375 L20.25,34.375 L20.25,36.375 Z M20.25,24.125 L36,24.125 L36,22.125 L20.25,22.125 L20.25,24.125 Z M20.25,11.875 L36,11.875 L36,9.875 L20.25,9.875 L20.25,11.875 Z M13.375,37 L16.625,37 L16.625,33.75 L13.375,33.75 L13.375,37 Z M12.375,39 L17.625,39 C18.178,39 18.625,38.553 18.625,38 L18.625,32.75 C18.625,32.198 18.178,31.75 17.625,31.75 L12.375,31.75 C11.822,31.75 11.375,32.198 11.375,32.75 L11.375,38 C11.375,38.553 11.822,39 12.375,39 L12.375,39 Z M13.375,24.75 L16.625,24.75 L16.625,21.5 L13.375,21.5 L13.375,24.75 Z M12.375,26.75 L17.625,26.75 C18.178,26.75 18.625,26.303 18.625,25.75 L18.625,20.5 C18.625,19.948 18.178,19.5 17.625,19.5 L12.375,19.5 C11.822,19.5 11.375,19.948 11.375,20.5 L11.375,25.75 C11.375,26.303 11.822,26.75 12.375,26.75 L12.375,26.75 Z M13.375,12.5 L16.625,12.5 L16.625,9.25 L13.375,9.25 L13.375,12.5 Z M12.375,14.5 L17.625,14.5 C18.178,14.5 18.625,14.053 18.625,13.5 L18.625,8.25 C18.625,7.698 18.178,7.25 17.625,7.25 L12.375,7.25 C11.822,7.25 11.375,7.698 11.375,8.25 L11.375,13.5 C11.375,14.053 11.822,14.5 12.375,14.5 L12.375,14.5 Z M9,44 L38.5,44 L38.5,4 L9,4 L9,44 Z M39.5,2 L8,2 C7.447,2 7,2.448 7,3 L7,45 C7,45.553 7.447,46 8,46 L39.5,46 C40.053,46 40.5,45.553 40.5,45 L40.5,3 C40.5,2.448 40.053,2 39.5,2 L39.5,2 Z" id="Amazon-Elastic-Container-Service_Task_Resource-Icon_light-bg" fill="#FFFFFF" fill="#FFFFFF"></path></svg>
@enduml