@startuml
'-------------------------------------------------------------------------
'Arch_AWS_Application_Discovery_Service_48_c
'Arch_AWS_Application_Migration_Service_48_c
'Arch_AWS_DataSync_48_c
'Arch_AWS_Mainframe_Modernization_48_c
'Arch_AWS_Migration_Evaluator_48_c
'Arch_AWS_Migration_Hub_48_c
'Arch_AWS_Server_Migration_Service_48_c
'Arch_AWS_Transfer_Family_48_c
'Res_AWS_Datasync_Agent_48_Dark_c
'Res_AWS_Mainframe_Modernization_Analyzer_48_Dark_c
'Res_AWS_Mainframe_Modernization_Compiler_48_Dark_c
'Res_AWS_Mainframe_Modernization_Converter_48_Dark_c
'Res_AWS_Mainframe_Modernization_Developer_48_Dark_c
'Res_AWS_Mainframe_Modernization_Runtime_48_Dark_c
'Res_AWS_Migration_Hub_Refactor_Spaces_Applications_48_Dark_c
'Res_AWS_Migration_Hub_Refactor_Spaces_Environments_48_Dark_c
'Res_AWS_Migration_Hub_Refactor_Spaces_Services_48_Dark_c
'Res_AWS_Transfer_Family_AWS_FTPS_48_Dark_c
'Res_AWS_Transfer_Family_AWS_FTP_48_Dark_c
'Res_AWS_Transfer_Family_AWS_SFTP_48_Dark_c
'-------------------------------------------------------------------------
sprite Arch_AWS_Application_Discovery_Service_48_c <svg width="64px" height="64px" viewBox="0 0 64 64" version="1.1" xmlns="http://www.w3.org/2000/svg" xmlns:xlink="http://www.w3.org/1999/xlink"><path id="rect" fill="#56C0A7" d="M5 0h54s5 0 5 5v54s0 5 -5 5h-54s-5 0 -5 -5v-54s0 -5 5 -5" /><path d="M51.2676642,47.7345728 L41.4705569,37.9349047 C40.6114598,39.1199855 39.6203478,40.1890583 38.5132227,41.1151215 L47.7722692,51.300816 C48.1283094,51.6558402 48.7693819,51.8948565 49.4524591,51.9018569 C50.1835417,51.9268586 50.8286146,51.6618406 51.2676642,51.2228106 C52.2337734,50.2567448 52.0577535,48.5256267 51.2676642,47.7345728 L51.2676642,47.7345728 Z M27.9990343,42.9182444 C36.2269643,42.9182444 42.9197207,35.7767575 42.9197207,27.0001591 C42.9197207,18.4935791 36.5059958,12.0791418 27.9990343,12.0791418 C19.2210422,12.0791418 12.0802351,18.7725981 12.0802351,27.0001591 C12.0802351,35.4797373 19.5190759,42.9182444 27.9990343,42.9182444 L27.9990343,42.9182444 Z M52.7388305,52.6939109 C51.9177377,53.5139669 50.734604,53.9819988 49.4844627,53.9819988 L49.4274563,53.9819988 C48.1973172,53.9669977 47.045187,53.5129668 46.2670991,52.7349137 L36.8270321,42.3522058 C34.2487407,44.0183194 31.2344,44.9973862 27.9990343,44.9973862 C18.4109506,44.9973862 10,36.5878128 10,27.0001591 C10,17.6255199 18.0749127,10 27.9990343,10 C37.6911298,10 44.9999558,17.3084983 44.9999558,27.0001591 C44.9999558,30.3393868 44.1208565,33.4575994 42.6186867,36.1407823 L52.7388305,46.2644726 C54.2550019,47.7825761 54.5780384,50.8547856 52.7388305,52.6939109 L52.7388305,52.6939109 Z M37.9611603,26.998159 C37.9611603,21.0407528 33.9587079,17.0374798 28.0000344,17.0374798 C21.7513282,17.0374798 17.0387956,21.3197718 17.0387956,26.998159 C17.0387956,32.9395641 22.0583629,37.9599064 28.0000344,37.9599064 C33.6796764,37.9599064 37.9611603,33.2475851 37.9611603,26.998159 L37.9611603,26.998159 Z M40.0413954,26.998159 C40.0413954,34.4326659 34.8648103,40.0390481 28.0000344,40.0390481 C20.9312355,40.0390481 14.9585604,34.0666409 14.9585604,26.998159 C14.9585604,20.1336909 20.5661942,14.9583381 28.0000344,14.9583381 C35.0898358,14.9583381 40.0413954,19.9086756 40.0413954,26.998159 L40.0413954,26.998159 Z M33.0005996,19.9976817 L21.9993562,19.9976817 L21.9993562,21.997818 L32.0004866,21.997818 L32.0004866,32.9985681 L34.0007127,32.9985681 L34.0007127,20.9977498 C34.0007127,20.4457122 33.5536621,19.9976817 33.0005996,19.9976817 L33.0005996,19.9976817 Z M20.9992432,33.9986363 L30.0002605,33.9986363 L30.0002605,31.9984999 L20.9992432,31.9984999 L20.9992432,33.9986363 Z M18.9990171,29.9983635 L30.0002605,29.9983635 L30.0002605,27.9982272 L18.9990171,27.9982272 L18.9990171,29.9983635 Z M31.0003736,51.9998636 L16.998791,51.9998636 L16.998791,43.9993181 L14.998565,43.9993181 L14.998565,52.9999318 C14.998565,53.5519695 15.4466156,54 15.998678,54 L32.0004866,54 C32.5535491,54 33.0005996,53.5519695 33.0005996,52.9999318 L33.0005996,46.9995227 L31.0003736,46.9995227 L31.0003736,51.9998636 Z M19.9991301,25.9980908 L30.0002605,25.9980908 L30.0002605,23.9979544 L19.9991301,23.9979544 L19.9991301,25.9980908 Z" id="AWS-Application-Discovery-Service_Icon_48_Squid" fill="#FFFFFF" fill="#FFFFFF"></path></svg>
sprite Arch_AWS_Application_Migration_Service_48_c <svg width="64px" height="64px" viewBox="0 0 64 64" version="1.1" xmlns="http://www.w3.org/2000/svg" xmlns:xlink="http://www.w3.org/1999/xlink"><path id="rect" fill="#56C0A7" d="M5 0h54s5 0 5 5v54s0 5 -5 5h-54s-5 0 -5 -5v-54s0 -5 5 -5" /><path d="M47.128,28.4204862 C46.741,25.4824862 45.16,23.3554862 42.814,22.6694862 C41.152,22.1834862 39.415,22.5414862 38.056,23.5784862 C37.358,22.0764862 36.463,20.7724862 35.382,19.6884862 C31.713,16.0074862 26.691,15.0114862 21.954,17.0174862 C17.906,18.7324862 14.855,23.4624862 14.855,28.0204862 C14.855,28.2324862 14.86,28.4464862 14.871,28.6604862 C12.633,29.4354862 9,31.5394862 9,37.0284862 C9,37.3264862 9.012,37.6144862 9.033,37.8954862 C9.375,42.2674862 11.48,45.1494862 14.808,45.8014862 L15.192,43.8384862 C11.934,43.1994862 11.184,39.7434862 11.027,37.7404862 C11.01,37.5114862 11,37.2734862 11,37.0284862 C11,32.4314862 14.168,30.8864862 16.111,30.3714862 C16.126,30.3684862 16.141,30.3654862 16.155,30.3624862 C16.656,30.2504862 16.99,29.7774862 16.93,29.2674862 C16.88,28.8534862 16.855,28.4334862 16.855,28.0204862 C16.855,24.2794862 19.437,20.2554862 22.733,18.8594862 C28.443,16.4394862 32.49,19.6204862 33.966,21.1004862 C35.168,22.3054862 36.107,23.8494862 36.758,25.6884862 C36.881,26.0364862 37.187,26.2894862 37.553,26.3434862 C37.914,26.3974862 38.284,26.2454862 38.505,25.9484862 C39.411,24.7214862 40.884,24.1884862 42.252,24.5884862 C43.911,25.0734862 45.005,26.7644862 45.191,29.1224862 C45.126,29.6514862 45.487,30.1404862 46.015,30.2304862 C47.874,30.5494862 52.2,31.8584862 52.2,37.0954862 C52.2,43.3274862 46.16,43.9264862 45.988,43.9454862 L35,43.9454862 L34,45.9384862 L46.068,45.9424862 C48.881,45.7134862 54.2,43.5704862 54.2,37.0954862 C54.2,31.9484862 50.679,29.2854862 47.128,28.4204862 L47.128,28.4204862 Z M28,40.9454862 L30,40.9454862 L30,33.9454862 L22,33.9454862 L22,35.9454862 L27.021,35.9454862 L16.275,47.2564862 L17.725,48.6344862 L28,37.8184862 L28,40.9454862 Z M41,34.7094862 L27.057,48.6524862 L25.643,47.2384862 L39.936,32.9454862 L32,32.9454862 L32,30.9454862 L43,30.9454862 L43,40.9454862 L41,40.9454862 L41,34.7094862 Z" id="AWS-CloudEndure-Migration_Icon_48_Squid" fill="#FFFFFF" fill="#FFFFFF"></path></svg>
sprite Arch_AWS_DataSync_48_c <svg width="64px" height="64px" viewBox="0 0 64 64" version="1.1" xmlns="http://www.w3.org/2000/svg" xmlns:xlink="http://www.w3.org/1999/xlink"><path id="rect" fill="#56C0A7" d="M5 0h54s5 0 5 5v54s0 5 -5 5h-54s-5 0 -5 -5v-54s0 -5 5 -5" /><path d="M46.914556,25.08266 C46.419455,21.7622071 44.427049,20.0234463 42.6286825,19.4982165 C41.1193749,19.0560231 39.5900632,19.3371461 38.3678141,20.2265352 C37.6546687,18.6858611 36.7244792,17.2932518 35.7132731,16.2788079 C32.3005776,12.8533091 28.2287477,12.1069825 23.6128069,14.0628383 C19.5569804,15.7815903 16.0012557,20.8868241 16.0012557,24.9886188 L16.0012557,25.2797462 C12.6805789,26.4042382 11.0002364,28.9943715 11.0002364,32.9901199 L13.0006441,32.9901199 C13.0006441,29.5966351 14.3109112,27.7478261 17.2495101,26.9954969 C17.6916002,26.8824475 18.0016634,26.4832728 18.0016634,26.0260728 L18.0016634,24.9886188 C18.0016634,21.7121852 21.1072963,17.2972535 24.3919657,15.9056446 C28.2387497,14.276932 31.4754094,14.8611876 34.2969844,17.691426 C35.3922076,18.7919075 36.4274186,20.5226648 37.0625481,22.3214518 C37.1855731,22.6696042 37.4916355,22.9227149 37.8577101,22.977739 C38.2217843,23.0297617 38.5908595,22.8786956 38.8099042,22.5815656 C39.6030658,21.5090964 40.8513202,21.0659025 42.0675681,21.4180566 C43.3638323,21.7972225 44.8171285,23.2148427 45.0091676,26.0570863 C45.045175,26.5823161 45.4802636,26.9894943 46.0073711,26.9894943 C47.6577074,26.9894943 51.9995923,29.1434368 51.9995923,33.9925585 C51.9995923,40.644469 46.2404186,40.9856183 46.0373772,40.9956226 L41.3954311,40.9956226 L41.3954311,42.9964981 L46.0753849,42.9964981 C46.154401,42.9924964 54,42.5943221 54,33.9925585 C54,28.6762323 49.7911422,25.6399038 46.914556,25.08266 L46.914556,25.08266 Z M32.6446477,33.2242223 C32.3465869,32.9761137 31.9315023,32.9230905 31.5804308,33.0861619 C31.228359,33.2512341 31.0043134,33.6043886 31.0043134,33.9925585 L31.0043134,34.9929962 L27.003498,34.9929962 L27.003498,36.9938717 L32.0045172,36.9938717 C32.513621,36.9938717 32.9327064,36.6137053 32.9967194,36.1224904 L36.4424217,38.9947472 L32.9967194,41.8680043 C32.9327064,41.375789 32.513621,40.9956226 32.0045172,40.9956226 L19.0018672,40.9956226 L19.0018672,38.9947472 C19.0018672,38.6205834 18.7928246,38.2764329 18.4597567,38.105358 C18.1246884,37.9332827 17.7246069,37.9632958 17.4205449,38.1803908 L10.419118,43.1825795 C10.169067,43.3616579 10.0140355,43.6457822 10.0010328,43.9529166 C9.98702995,44.260051 10.1160562,44.5561805 10.3491037,44.7572685 L17.3505307,50.7598949 C17.5355684,50.9179641 17.7666155,51 18.0016634,51 C18.1426921,51 18.2857213,50.9699869 18.4197486,50.9089602 C18.7738207,50.7448884 19.0018672,50.3907334 19.0018672,49.9995623 L19.0018672,47.9986868 L23.0026826,47.9986868 L23.0026826,45.9978113 L18.0016634,45.9978113 C17.4485506,45.9978113 17.0014595,46.4460074 17.0014595,46.9982491 L17.0014595,47.8246106 L12.6205667,44.0689674 L17.0014595,40.9395981 L17.0014595,41.9960604 C17.0014595,42.548302 17.4485506,42.9964981 18.0016634,42.9964981 L31.0043134,42.9964981 L31.0043134,43.9969358 C31.0043134,44.3851057 31.228359,44.7382602 31.5804308,44.9033324 C31.9305021,45.0674042 32.3465869,45.0153815 32.6446477,44.765272 L38.6458708,39.7630833 C38.8739172,39.5730002 39.0059441,39.2918772 39.0059441,38.9947472 C39.0059441,38.6976171 38.8739172,38.4164941 38.6458708,38.226411 L32.6446477,33.2242223 Z M25.0030903,47.9986868 L27.003498,47.9986868 L27.003498,45.9978113 L25.0030903,45.9978113 L25.0030903,47.9986868 Z M29.0039057,47.9986868 L38.0057403,47.9986868 L38.0057403,45.9978113 L29.0039057,45.9978113 L29.0039057,47.9986868 Z M11.0002364,36.9938717 L21.0022749,36.9938717 L21.0022749,34.9929962 L11.0002364,34.9929962 L11.0002364,36.9938717 Z M23.0026826,36.9938717 L25.0030903,36.9938717 L25.0030903,34.9929962 L23.0026826,34.9929962 L23.0026826,36.9938717 Z" id="AWS-Data-Sync_Icon_48_Squid" fill="#FFFFFF" fill="#FFFFFF"></path></svg>
sprite Arch_AWS_Mainframe_Modernization_48_c <svg width="64px" height="64px" viewBox="0 0 64 64" version="1.1" xmlns="http://www.w3.org/2000/svg" xmlns:xlink="http://www.w3.org/1999/xlink"><path id="rect" fill="#56C0A7" d="M5 0h54s5 0 5 5v54s0 5 -5 5h-54s-5 0 -5 -5v-54s0 -5 5 -5" /><path d="M45.897,21.521 C45.897,21.782 45.885,22.04 45.865,22.294 C45.482,26.808 41.491,30.34 36.778,30.34 L36.778,28.34 C40.46,28.34 43.576,25.612 43.872,22.129 C43.887,21.931 43.897,21.727 43.897,21.521 C43.897,17.854 41.421,15.088 38.139,15.088 C37.586,15.088 37.139,14.64 37.139,14.088 C37.139,10.906 35.24,9.006 32.057,9.006 L31.381,9.006 C31.018,9.006 30.683,8.809 30.506,8.49 C28.81,5.428 25.601,3.6 21.92,3.6 C16.51,3.6 12.109,8.001 12.109,13.412 C12.109,13.964 11.662,14.412 11.109,14.412 C7.189,14.412 4,17.601 4,21.521 C4,22.663 4.33,28.361 10.842,28.361 L10.842,30.361 C4.734,30.361 2,25.921 2,21.521 C2,16.823 5.575,12.945 10.147,12.462 C10.632,6.392 15.727,1.6 21.92,1.6 C26.129,1.6 29.836,3.609 31.953,7.006 L32.057,7.006 C36.037,7.006 38.713,9.384 39.092,13.146 C43.033,13.625 45.897,17.065 45.897,21.521 L45.897,21.521 Z M34.424,37.456 L37.936,40.199 L30.503,46.006 L17.507,46.006 L10.075,40.199 L13.586,37.456 L14.817,39.032 L13.323,40.199 L18.197,44.006 L29.814,44.006 L34.688,40.199 L33.194,39.032 L34.424,37.456 Z M34.424,30.456 L37.936,33.199 L30.503,39.006 L17.507,39.006 L10.075,33.199 L13.586,30.456 L14.817,32.032 L13.323,33.199 L18.197,37.006 L29.814,37.006 L34.688,33.199 L33.194,32.032 L34.424,30.456 Z M17.95,21.006 L30.061,21.006 L35.182,25.006 L30.061,29.006 L17.95,29.006 L12.829,25.006 L17.95,21.006 Z M30.751,31.006 L38.43,25.006 L30.751,19.006 L17.26,19.006 L9.581,25.006 L17.26,31.006 L30.751,31.006 Z" id="Fill-3" fill="#FFFFFF"></path></svg>
sprite Arch_AWS_Migration_Evaluator_48_c <svg width="64px" height="64px" viewBox="0 0 64 64" version="1.1" xmlns="http://www.w3.org/2000/svg" xmlns:xlink="http://www.w3.org/1999/xlink"><path id="rect" fill="#56C0A7" d="M5 0h54s5 0 5 5v54s0 5 -5 5h-54s-5 0 -5 -5v-54s0 -5 5 -5" /><path d="M23.874,26.375 C22.495,26.375 21.374,25.253 21.374,23.875 C21.374,22.497 22.495,21.375 23.874,21.375 C25.253,21.375 26.374,22.497 26.374,23.875 C26.374,25.253 25.253,26.375 23.874,26.375 L23.874,26.375 Z M23.874,19.375 C21.393,19.375 19.374,21.394 19.374,23.875 C19.374,26.356 21.393,28.375 23.874,28.375 C26.355,28.375 28.374,26.356 28.374,23.875 C28.374,21.394 26.355,19.375 23.874,19.375 L23.874,19.375 Z M30.18,28.909 C29.953,29.009 29.772,29.19 29.672,29.417 L23.951,42.287 L18.27,29.502 C18.169,29.276 17.988,29.095 17.762,28.995 L5.462,23.528 L18.145,17.89 C18.372,17.79 18.553,17.609 18.653,17.383 L23.951,5.462 L29.287,17.468 C29.388,17.694 29.568,17.875 29.795,17.976 L42.286,23.528 L30.18,28.909 Z M37.043,36.99 L29.743,34.182 L31.344,30.581 L34.106,29.353 L37.043,36.99 Z M10.705,36.799 L13.579,29.324 L16.598,30.666 L18.065,33.968 L10.705,36.799 Z M11.005,10.951 L18.108,13.683 L16.981,16.219 L13.607,17.719 L11.005,10.951 Z M36.743,10.76 L34.078,17.69 L30.959,16.304 L29.699,13.469 L36.743,10.76 Z M45.154,22.614 L35.908,18.504 L39.418,9.378 C39.56,9.009 39.471,8.591 39.191,8.312 C38.911,8.032 38.495,7.945 38.125,8.086 L28.886,11.64 L24.865,2.594 C24.704,2.233 24.347,2 23.951,2 C23.556,2 23.198,2.233 23.037,2.594 L18.922,11.853 L9.623,8.276 C9.254,8.138 8.837,8.224 8.557,8.503 C8.277,8.782 8.188,9.2 8.33,9.569 L11.777,18.532 L2.594,22.614 C2.232,22.774 2,23.133 2,23.528 C2,23.923 2.232,24.281 2.594,24.441 L11.749,28.511 L8.03,38.181 C7.889,38.55 7.978,38.968 8.257,39.247 C8.448,39.438 8.703,39.54 8.964,39.54 C9.085,39.54 9.206,39.518 9.323,39.474 L18.879,35.799 L23.037,45.156 C23.198,45.517 23.556,45.75 23.951,45.75 C24.347,45.75 24.704,45.517 24.865,45.156 L28.93,36.012 L38.425,39.664 C38.542,39.709 38.663,39.731 38.784,39.731 C39.045,39.731 39.3,39.629 39.491,39.438 C39.77,39.159 39.859,38.741 39.718,38.372 L35.937,28.539 L45.154,24.441 C45.516,24.281 45.748,23.923 45.748,23.528 C45.748,23.133 45.516,22.774 45.154,22.614 L45.154,22.614 Z" id="AWS-Migration-Evaluator_Icon_48_Squid" fill="#FFFFFF"></path></svg>
sprite Arch_AWS_Migration_Hub_48_c <svg width="64px" height="64px" viewBox="0 0 64 64" version="1.1" xmlns="http://www.w3.org/2000/svg" xmlns:xlink="http://www.w3.org/1999/xlink"><path id="rect" fill="#56C0A7" d="M5 0h54s5 0 5 5v54s0 5 -5 5h-54s-5 0 -5 -5v-54s0 -5 5 -5" /><path d="M39.371,27.657 L38.07,29.176 L31.721,23.733 L25.371,29.176 L24.07,27.657 L31.07,21.657 C31.443,21.336 31.998,21.336 32.371,21.657 L39.371,27.657 Z M32.371,31.657 L39.371,37.657 L38.07,39.176 L31.721,33.733 L25.371,39.176 L24.07,37.657 L31.07,31.657 C31.443,31.336 31.998,31.336 32.371,31.657 L32.371,31.657 Z M39.371,32.657 L38.07,34.176 L31.721,28.733 L25.371,34.176 L24.07,32.657 L31.07,26.657 C31.443,26.336 31.998,26.336 32.371,26.657 L39.371,32.657 Z M44.211,44.114 C43.56,44.763 42.428,44.763 41.777,44.114 C41.106,43.442 41.106,42.35 41.777,41.679 C42.102,41.355 42.534,41.176 42.994,41.176 C43.454,41.176 43.886,41.355 44.211,41.679 C44.882,42.35 44.882,43.442 44.211,44.114 L44.211,44.114 Z M32.937,50.329 C32.287,50.978 31.154,50.978 30.504,50.329 C30.179,50.004 30,49.572 30,49.112 C30,48.653 30.179,48.22 30.504,47.895 C30.829,47.571 31.261,47.391 31.721,47.391 C32.181,47.391 32.612,47.571 32.937,47.895 C33.263,48.22 33.441,48.653 33.441,49.112 C33.441,49.572 33.263,50.004 32.937,50.329 L32.937,50.329 Z M20.013,44.118 C19.687,43.793 19.509,43.361 19.509,42.901 C19.509,42.442 19.687,42.01 20.013,41.684 C20.338,41.36 20.769,41.18 21.229,41.18 C21.689,41.18 22.121,41.36 22.446,41.684 C22.771,42.01 22.95,42.442 22.95,42.901 C22.95,43.361 22.771,43.793 22.446,44.118 C21.796,44.767 20.663,44.767 20.013,44.118 L20.013,44.118 Z M40.363,40.265 C39.393,41.236 39.088,42.609 39.415,43.849 L34.444,46.595 C34.411,46.558 34.387,46.517 34.351,46.481 C32.9,45.03 30.541,45.03 29.09,46.481 C29.07,46.501 29.058,46.524 29.039,46.544 L24.77,43.984 C25.157,42.711 24.865,41.275 23.86,40.27 C22.409,38.819 20.05,38.819 18.599,40.27 C17.147,41.721 17.147,44.081 18.599,45.532 C19.324,46.258 20.276,46.62 21.229,46.62 C22.113,46.62 22.989,46.294 23.691,45.67 L28.096,48.311 C27.833,49.51 28.159,50.813 29.09,51.743 C29.815,52.469 30.767,52.831 31.721,52.831 C32.674,52.831 33.626,52.469 34.351,51.743 C35.266,50.829 35.601,49.554 35.363,48.372 L40.424,45.577 C41.142,46.265 42.065,46.615 42.994,46.615 C43.947,46.615 44.899,46.253 45.625,45.528 C47.075,44.076 47.075,41.716 45.625,40.265 C44.174,38.814 41.814,38.814 40.363,40.265 L40.363,40.265 Z M47.268,37.626 C46.319,37.626 45.548,36.854 45.548,35.905 C45.548,34.956 46.319,34.184 47.268,34.184 C48.218,34.184 48.989,34.956 48.989,35.905 C48.989,36.854 48.218,37.626 47.268,37.626 L47.268,37.626 Z M46,22.69 C46,21.74 46.771,20.969 47.721,20.969 C48.67,20.969 49.441,21.74 49.441,22.69 C49.441,23.638 48.67,24.41 47.721,24.41 C46.771,24.41 46,23.638 46,22.69 L46,22.69 Z M35.714,17.441 C34.765,17.441 33.993,16.669 33.993,15.72 C33.993,14.772 34.765,14 35.714,14 C36.663,14 37.434,14.772 37.434,15.72 C37.434,16.669 36.663,17.441 35.714,17.441 L35.714,17.441 Z M48.721,32.48 L48.721,26.257 C50.285,25.817 51.441,24.393 51.441,22.69 C51.441,20.638 49.772,18.969 47.721,18.969 C46.821,18.969 46.006,19.303 45.362,19.836 L39.346,16.512 C39.401,16.257 39.434,15.993 39.434,15.72 C39.434,13.669 37.766,12 35.714,12 C33.662,12 31.993,13.669 31.993,15.72 C31.993,17.772 33.662,19.441 35.714,19.441 C36.773,19.441 37.725,18.99 38.404,18.278 L44.217,21.488 C44.086,21.867 44,22.267 44,22.69 C44,24.393 45.156,25.817 46.721,26.257 L46.721,32.24 C44.93,32.507 43.548,34.041 43.548,35.905 C43.548,37.957 45.217,39.626 47.268,39.626 C49.32,39.626 50.989,37.957 50.989,35.905 C50.989,34.368 50.053,33.047 48.721,32.48 L48.721,32.48 Z M16.173,37.626 C15.224,37.626 14.452,36.854 14.452,35.905 C14.452,34.956 15.224,34.184 16.173,34.184 C17.122,34.184 17.893,34.956 17.893,35.905 C17.893,36.854 17.122,37.626 16.173,37.626 L16.173,37.626 Z M14,22.69 C14,21.74 14.771,20.969 15.721,20.969 C16.67,20.969 17.441,21.74 17.441,22.69 C17.441,23.638 16.67,24.41 15.721,24.41 C14.771,24.41 14,23.638 14,22.69 L14,22.69 Z M27.707,14 C28.656,14 29.428,14.772 29.428,15.72 C29.428,16.669 28.656,17.441 27.707,17.441 C26.758,17.441 25.986,16.669 25.986,15.72 C25.986,14.772 26.758,14 27.707,14 L27.707,14 Z M19.893,35.905 C19.893,34.041 18.512,32.507 16.721,32.24 L16.721,26.257 C18.285,25.817 19.441,24.393 19.441,22.69 C19.441,22.267 19.355,21.867 19.225,21.488 L25.023,18.285 C25.701,18.994 26.65,19.441 27.707,19.441 C29.759,19.441 31.428,17.772 31.428,15.72 C31.428,13.669 29.759,12 27.707,12 C25.655,12 23.986,13.669 23.986,15.72 C23.986,15.996 24.021,16.263 24.078,16.522 L18.079,19.836 C17.435,19.303 16.62,18.969 15.721,18.969 C13.669,18.969 12,20.638 12,22.69 C12,24.393 13.156,25.817 14.721,26.257 L14.721,32.48 C13.389,33.047 12.452,34.368 12.452,35.905 C12.452,37.957 14.121,39.626 16.173,39.626 C18.225,39.626 19.893,37.957 19.893,35.905 L19.893,35.905 Z" id="AWS-Migration-Hub_Icon_48_Squid" fill="#FFFFFF" fill="#FFFFFF"></path></svg>
sprite Arch_AWS_Server_Migration_Service_48_c <svg width="64px" height="64px" viewBox="0 0 64 64" version="1.1" xmlns="http://www.w3.org/2000/svg" xmlns:xlink="http://www.w3.org/1999/xlink"><path id="rect" fill="#56C0A7" d="M5 0h54s5 0 5 5v54s0 5 -5 5h-54s-5 0 -5 -5v-54s0 -5 5 -5" /><path d="M13.9998592,26 L24.9994719,26 L24.9994719,24 L13.9998592,24 L13.9998592,26 Z M13.9998592,22 L24.9994719,22 L24.9994719,20 L13.9998592,20 L13.9998592,22 Z M13.9998592,18 L24.9994719,18 L24.9994719,16 L13.9998592,16 L13.9998592,18 Z M35.9990846,52 L37.9990142,52 L37.9990142,45 L35.9990846,45 L35.9990846,52 Z M30.9992606,54 L32.9991902,54 L32.9991902,45 L30.9992606,45 L30.9992606,54 Z M25.9994367,52 L27.9993662,52 L27.9993662,45 L25.9994367,45 L25.9994367,52 Z M11.9999296,41 L26.9994015,41 L26.9994015,12 L11.9999296,12 L11.9999296,41 Z M28.999331,11 L28.999331,42 C28.999331,42.552 28.5523468,43 27.9993662,43 L10.9999648,43 C10.4469843,43 10,42.552 10,42 L10,11 C10,10.448 10.4469843,10 10.9999648,10 L27.9993662,10 C28.5523468,10 28.999331,10.448 28.999331,11 L28.999331,11 Z M53.9984508,35 C54.0454492,37.533 53.0234852,39.546 50.8775607,41.136 C48.5476427,42.873 45.6787438,42.995 45.557748,43 L35.9990846,43 L35.9990846,41 L45.5207493,41 C45.5067498,41 47.8636668,40.888 49.6856027,39.53 C51.3205451,38.319 52.03352,36.928 51.9985212,35.019 C51.9985212,31.762 49.902595,29.129 47.1236929,28.874 C46.5767121,28.824 46.1727264,28.342 46.2187247,27.795 C46.2267245,27.7 46.239724,27.604 46.2567234,27.501 C46.3027218,27.21 46.3457203,26.936 46.0447309,26.194 C45.727742,25.413 45.1447626,24.782 44.4397874,24.463 C42.94484,23.786 41.3998944,24.004 40.3099328,25.048 C40.0659414,25.281 39.7269533,25.375 39.394965,25.301 C39.0679765,25.227 38.799986,24.992 38.6819901,24.677 C37.4090349,21.281 34.1251506,19 30.5092779,19 L30.5072779,19 C29.9562973,19 29.510313,18.554 29.5083131,18.003 L29.5083131,17.997 C29.510313,17.446 29.9562973,17 30.5072779,17 L30.9992606,17.011 C34.8151263,17.188 38.2690047,19.422 40.0229429,22.786 C41.5748883,21.906 43.4818211,21.833 45.2667583,22.642 C46.4497166,23.178 47.3846837,24.173 47.8976656,25.443 C48.1756558,26.125 48.2716525,26.631 48.2876519,27.045 C51.6035351,27.851 53.9984508,31.097 53.9984508,35 L53.9984508,35 Z" id="AWS-Server-Migration-Service_Icon_48_Squid" fill="#FFFFFF" fill="#FFFFFF"></path></svg>
sprite Arch_AWS_Transfer_Family_48_c <svg width="64px" height="64px" viewBox="0 0 64 64" version="1.1" xmlns="http://www.w3.org/2000/svg" xmlns:xlink="http://www.w3.org/1999/xlink"><path id="rect" fill="#56C0A7" d="M5 0h54s5 0 5 5v54s0 5 -5 5h-54s-5 0 -5 -5v-54s0 -5 5 -5" /><path d="M51.924,21.3825 C51.77,21.7565 51.404,21.9995 51,21.9995 L47,21.9995 L47,27.9995 L49,27.9995 C49.553,27.9995 50,28.4475 50,28.9995 L50,51.9995 C50,52.5515 49.553,52.9995 49,52.9995 L15,52.9995 C13.346,52.9995 12,51.6535 12,49.9995 L12,21.9995 C12,21.4475 12.447,20.9995 13,20.9995 L24.076,20.9995 C24.386,20.9995 24.679,21.1435 24.868,21.3885 L26.884,23.9995 L31,23.9995 L31,25.9995 L26.393,25.9995 C26.083,25.9995 25.79,25.8565 25.601,25.6115 L23.585,22.9995 L14,22.9995 L14,49.9995 C14,50.5505 14.448,50.9995 15,50.9995 C15.552,50.9995 16,50.5505 16,49.9995 L16,28.9995 C16,28.4475 16.447,27.9995 17,27.9995 L31,27.9995 L31,29.9995 L18,29.9995 L18,49.9995 C18,50.3525 17.928,50.6855 17.816,50.9995 L48,50.9995 L48,29.9995 L47,29.9995 L45,29.9995 L43,29.9995 L43,27.9995 L45,27.9995 L45,20.9995 C45,20.4475 45.447,19.9995 46,19.9995 L48.586,19.9995 L43,14.4135 L37.414,19.9995 L40,19.9995 C40.553,19.9995 41,20.4475 41,20.9995 L41,25.9995 L41,29.9995 L41,31.9995 L45,31.9995 C45.404,31.9995 45.77,32.2435 45.924,32.6165 C46.079,32.9905 45.993,33.4205 45.707,33.7065 L37.707,41.7065 C37.512,41.9025 37.256,41.9995 37,41.9995 C36.744,41.9995 36.488,41.9025 36.293,41.7065 L28.293,33.7065 C28.007,33.4205 27.921,32.9905 28.076,32.6165 C28.231,32.2435 28.596,31.9995 29,31.9995 L33,31.9995 L33,25.9995 L35,25.9995 L35,32.9995 C35,33.5515 34.553,33.9995 34,33.9995 L31.414,33.9995 L37,39.5855 L42.586,33.9995 L40,33.9995 C39.447,33.9995 39,33.5515 39,32.9995 L39,29.9995 L39,25.9995 L39,21.9995 L35,21.9995 C34.596,21.9995 34.231,21.7565 34.076,21.3825 C33.921,21.0085 34.007,20.5785 34.293,20.2925 L42.293,12.2925 C42.684,11.9025 43.317,11.9025 43.707,12.2925 L51.707,20.2925 C51.993,20.5785 52.079,21.0085 51.924,21.3825" id="AWS-Transfer-Family_Icon-48_Squid" fill="#FFFFFF" fill="#FFFFFF"></path></svg>
sprite Res_AWS_Datasync_Agent_48_Dark_c <svg width="48px" height="48px" viewBox="0 0 48 48" version="1.1" xmlns="http://www.w3.org/2000/svg" xmlns:xlink="http://www.w3.org/1999/xlink"><path id="rect" fill="#56C0A7" d="M5 0h38s5 0 5 5v38s0 5 -5 5h-38s-5 0 -5 -5v-38s0 -5 5 -5" /><path d="M44.0004,8.0762 C44.0004,5.8282 42.1724,4.0002 39.9244,4.0002 L8.0754,4.0002 C5.8284,4.0002 4.0004,5.8282 4.0004,8.0762 L4.0004,39.8592 C4.0004,42.1082 5.8304,43.9382 8.0794,43.9382 L39.9244,43.9382 C42.1724,43.9382 44.0004,42.1102 44.0004,39.8622 L44.0004,8.0762 Z M46.0004,8.0762 L46.0004,39.8622 C46.0004,43.2122 43.2744,45.9382 39.9244,45.9382 L8.0794,45.9382 C4.7284,45.9382 2.0004,43.2102 2.0004,39.8592 L2.0004,8.0762 C2.0004,4.7252 4.7264,2.0002 8.0754,2.0002 L39.9244,2.0002 C43.2744,2.0002 46.0004,4.7252 46.0004,8.0762 L46.0004,8.0762 Z M33.2854,12.7282 C32.9844,12.4882 32.5714,12.4422 32.2274,12.6072 C31.8814,12.7742 31.6604,13.1242 31.6604,13.5092 L31.6604,15.9982 L25.8094,15.9982 L25.8094,17.9982 L32.6604,17.9982 C33.2134,17.9982 33.6604,17.5502 33.6604,16.9982 L33.6604,15.5892 L39.0634,19.9122 L33.6604,24.2352 L33.6604,23.1142 C33.6604,22.5612 33.2134,22.1142 32.6604,22.1142 L15.5184,22.1142 L15.5184,19.9122 C15.5184,19.5282 15.2974,19.1772 14.9514,19.0112 C14.6034,18.8432 14.1934,18.8912 13.8934,19.1312 L5.8884,25.5342 C5.6504,25.7242 5.5134,26.0122 5.5134,26.3152 C5.5134,26.6192 5.6504,26.9072 5.8884,27.0962 L13.8934,33.4992 C14.0734,33.6442 14.2954,33.7192 14.5184,33.7192 C14.6654,33.7192 14.8134,33.6862 14.9514,33.6192 C15.2974,33.4532 15.5184,33.1032 15.5184,32.7192 L15.5184,30.1282 L21.3454,30.1282 L21.3454,28.1282 L14.5184,28.1282 C13.9654,28.1282 13.5184,28.5762 13.5184,29.1282 L13.5184,30.6382 L8.1134,26.3152 L13.5184,21.9932 L13.5184,23.1142 C13.5184,23.6662 13.9654,24.1142 14.5184,24.1142 L31.6604,24.1142 L31.6604,26.3152 C31.6604,26.7002 31.8814,27.0502 32.2274,27.2172 C32.5744,27.3832 32.9844,27.3362 33.2854,27.0962 L41.2894,20.6932 C41.5264,20.5032 41.6644,20.2162 41.6644,19.9122 C41.6644,19.6082 41.5264,19.3212 41.2894,19.1312 L33.2854,12.7282 Z M28.3244,30.1602 L41.4804,30.1602 L41.4804,28.1602 L28.3244,28.1602 L28.3244,30.1602 Z M23.1334,30.1602 L26.6344,30.1602 L26.6344,28.1602 L23.1334,28.1602 L23.1334,30.1602 Z M8.4524,17.9982 L19.2974,17.9982 L19.2974,15.9982 L8.4524,15.9982 L8.4524,17.9982 Z M20.5684,17.9982 L23.9164,17.9982 L23.9164,15.9982 L20.5684,15.9982 L20.5684,17.9982 Z" id="AWS-Datasync-Agent_Resource-Icon_light-bg" fill="#FFFFFF" fill="#FFFFFF"></path></svg>
sprite Res_AWS_Mainframe_Modernization_Analyzer_48_Dark_c <svg width="48px" height="48px" viewBox="0 0 48 48" version="1.1" xmlns="http://www.w3.org/2000/svg" xmlns:xlink="http://www.w3.org/1999/xlink"><path id="rect" fill="#56C0A7" d="M5 0h38s5 0 5 5v38s0 5 -5 5h-38s-5 0 -5 -5v-38s0 -5 5 -5" /><path d="M30.007,10 L41.007,10 L41.007,8 L30.007,8 L30.007,10 Z M16.007,10 L23.007,10 L23.007,8 L16.007,8 L16.007,10 Z M31.007,16 L46.007,16 L46.007,14 L31.007,14 L31.007,16 Z M12.007,11 C12.007,14.86 15.148,18 19.007,18 C22.866,18 26.007,14.86 26.007,11 C26.007,7.14 22.866,4 19.007,4 C15.148,4 12.007,7.14 12.007,11 L12.007,11 Z M12.776,17.479 L3.714,26.541 L2.3,25.126 L11.49,15.936 C10.555,14.518 10.007,12.822 10.007,11 C10.007,6.038 14.044,2 19.007,2 C23.97,2 28.007,6.038 28.007,11 C28.007,15.962 23.97,20 19.007,20 C16.589,20 14.394,19.036 12.776,17.479 L12.776,17.479 Z M14.007,40 L37.007,40 L37.007,38 L14.007,38 L14.007,40 Z M8.007,34 L28.007,34 L28.007,32 L8.007,32 L8.007,34 Z M14.007,28 L37.007,28 L37.007,26 L14.007,26 L14.007,28 Z M27.007,22 L46.007,22 L46.007,20 L27.007,20 L27.007,22 Z M37.774,31.463 L45.501,37.5 L34.62,46 L14.73,46 L3.85,37.5 L7.219,34.867 L8.451,36.443 L7.098,37.5 L15.419,44 L33.931,44 L42.253,37.5 L36.543,33.04 L37.774,31.463 Z" id="Fill-1" fill="#FFFFFF" fill="#FFFFFF"></path></svg>
sprite Res_AWS_Mainframe_Modernization_Compiler_48_Dark_c <svg width="48px" height="48px" viewBox="0 0 48 48" version="1.1" xmlns="http://www.w3.org/2000/svg" xmlns:xlink="http://www.w3.org/1999/xlink"><path id="rect" fill="#56C0A7" d="M5 0h38s5 0 5 5v38s0 5 -5 5h-38s-5 0 -5 -5v-38s0 -5 5 -5" /><path d="M29.471,23.2368 L32.646,20.0618 L29.471,16.8868 L30.885,15.4728 L34.767,19.3548 C35.158,19.7448 35.158,20.3778 34.767,20.7688 L30.885,24.6508 L29.471,23.2368 Z M14.408,20.7688 C14.018,20.3778 14.018,19.7448 14.408,19.3548 L18.29,15.4728 L19.704,16.8868 L16.53,20.0618 L19.704,23.2368 L18.29,24.6508 L14.408,20.7688 Z M23.282,25.7048 L21.424,24.9618 L25.641,14.4188 L27.498,15.1618 L23.282,25.7048 Z M33.873,43.9998 L14.081,43.9998 L5.091,36.9778 L11.59,31.6018 L13.901,33.8608 C14.55,34.4938 15.603,34.4918 16.248,33.8608 L17.8,32.3428 C18.503,32.6968 19.232,32.9928 19.979,33.2298 L19.979,35.3198 C19.979,36.2468 20.733,36.9998 21.659,36.9998 L27.299,36.9998 C28.225,36.9998 28.979,36.2468 28.979,35.3198 L28.979,33.4388 C29.698,33.1998 30.399,32.9028 31.075,32.5488 L32.548,34.0558 C33.187,34.7078 34.315,34.7078 34.951,34.0558 L36.894,32.0678 L42.861,36.9798 L33.873,43.9998 Z M11.284,21.9998 L8.979,21.9998 L8.979,16.9998 L11.502,16.9998 C11.958,16.9998 12.357,16.6918 12.47,16.2508 C12.751,15.1658 13.175,14.1198 13.732,13.1408 C13.952,12.7528 13.889,12.2668 13.577,11.9478 L11.768,10.0958 L15.207,6.5758 L16.987,8.3958 C17.311,8.7278 17.818,8.7928 18.213,8.5558 C19.167,7.9878 20.186,7.5558 21.241,7.2698 C21.676,7.1518 21.979,6.7568 21.979,6.3048 L21.979,3.9998 L26.979,3.9998 L26.979,6.5238 C26.979,6.9798 27.287,7.3778 27.729,7.4918 C28.812,7.7718 29.858,8.1958 30.838,8.7538 C31.225,8.9738 31.711,8.9118 32.032,8.5998 L33.883,6.7888 L37.402,10.2288 L35.582,12.0068 C35.252,12.3298 35.186,12.8368 35.422,13.2338 C35.99,14.1868 36.422,15.2058 36.709,16.2618 C36.827,16.6978 37.223,16.9998 37.674,16.9998 L39.979,16.9998 L39.979,21.9998 L37.455,21.9998 C36.999,21.9998 36.601,22.3078 36.488,22.7498 C36.207,23.8338 35.783,24.8798 35.226,25.8598 C35.005,26.2468 35.069,26.7338 35.38,27.0518 L37.19,28.9038 L36.748,29.3568 L36.592,29.2278 L35.321,30.7718 L35.345,30.7918 L33.75,32.4238 L31.971,30.6038 C31.649,30.2748 31.141,30.2088 30.744,30.4438 C29.79,31.0118 28.772,31.4448 27.717,31.7298 C27.282,31.8478 26.979,32.2438 26.979,32.6948 L26.979,34.9998 L21.979,34.9998 L21.979,32.4768 C21.979,32.0208 21.67,31.6228 21.229,31.5078 C20.146,31.2278 19.1,30.8038 18.119,30.2468 C17.734,30.0268 17.246,30.0888 16.926,30.4008 L15.075,32.2108 L11.556,28.7718 L13.375,26.9928 C13.705,26.6708 13.772,26.1628 13.535,25.7668 C12.968,24.8128 12.535,23.7938 12.248,22.7378 C12.13,22.3028 11.735,21.9998 11.284,21.9998 L11.284,21.9998 Z M38.297,30.6318 L38.837,30.0798 C39.473,29.4318 39.473,28.3778 38.838,27.7308 L37.323,26.1788 C37.676,25.4758 37.972,24.7478 38.208,23.9998 L40.299,23.9998 C41.225,23.9998 41.979,23.2468 41.979,22.3198 L41.979,16.6798 C41.979,15.7538 41.225,14.9998 40.299,14.9998 L38.417,14.9998 C38.178,14.2808 37.881,13.5788 37.528,12.9028 L39.034,11.4308 C39.361,11.1118 39.54,10.6848 39.54,10.2288 C39.54,9.7728 39.361,9.3448 39.034,9.0278 L35.057,5.1388 C34.408,4.5068 33.355,4.5078 32.709,5.1398 L31.158,6.6568 C30.454,6.3028 29.726,6.0068 28.979,5.7708 L28.979,3.6798 C28.979,2.7538 28.225,1.9998 27.299,1.9998 L21.659,1.9998 C20.733,1.9998 19.979,2.7538 19.979,3.6798 L19.979,5.5618 C19.26,5.7998 18.559,6.0968 17.882,6.4508 L16.409,4.9448 C15.771,4.2918 14.643,4.2918 14.006,4.9448 L10.12,8.9208 C9.485,9.5688 9.485,10.6228 10.119,11.2698 L11.635,12.8208 C11.283,13.5238 10.986,14.2528 10.749,14.9998 L8.659,14.9998 C7.733,14.9998 6.979,15.7538 6.979,16.6798 L6.979,22.3198 C6.979,23.2468 7.733,23.9998 8.659,23.9998 L10.54,23.9998 C10.78,24.7188 11.076,25.4208 11.43,26.0968 L9.924,27.5698 C9.597,27.8878 9.417,28.3148 9.417,28.7708 C9.417,29.2278 9.597,29.6548 9.923,29.9718 L10.151,30.1948 L1.9,37.0228 L13.392,45.9998 L34.563,45.9998 L46.058,37.0208 L38.297,30.6318 Z" id="Fill-1" fill="#FFFFFF" fill="#FFFFFF"></path></svg>
sprite Res_AWS_Mainframe_Modernization_Converter_48_Dark_c <svg width="48px" height="48px" viewBox="0 0 48 48" version="1.1" xmlns="http://www.w3.org/2000/svg" xmlns:xlink="http://www.w3.org/1999/xlink"><path id="rect" fill="#56C0A7" d="M5 0h38s5 0 5 5v38s0 5 -5 5h-38s-5 0 -5 -5v-38s0 -5 5 -5" /><path d="M22.997,13 L26.997,13 L26.997,9 L22.997,9 L22.997,13 Z M24.997,35 C23.894,35 22.997,35.897 22.997,37 C22.997,38.103 23.894,39 24.997,39 C26.099,39 26.997,38.103 26.997,37 C26.997,35.897 26.099,35 24.997,35 L24.997,35 Z M25.997,15 L25.997,33.142 C27.717,33.589 28.997,35.142 28.997,37 C28.997,39.206 27.203,41 24.997,41 C22.791,41 20.997,39.206 20.997,37 C20.997,35.142 22.276,33.589 23.997,33.142 L23.997,15 L20.997,15 L20.997,7 L28.997,7 L28.997,15 L25.997,15 Z M20.997,20 L20.997,18 L14.16,18 L5.198,11 L14.16,4 L33.952,4 L42.914,11 L33.952,18 L27.997,18 L27.997,20 L34.641,20 L46.162,11 L34.641,2 L13.471,2 L1.95,11 L13.471,20 L20.997,20 Z M34.641,28 L46.162,37 L34.641,46 L13.471,46 L1.95,37 L13.471,28 L20.997,28 L20.997,30 L14.16,30 L5.198,37 L14.16,44 L33.952,44 L42.914,37 L33.952,30 L27.997,30 L27.997,28 L34.641,28 Z" id="Fill-1" fill="#FFFFFF" fill="#FFFFFF"></path></svg>
sprite Res_AWS_Mainframe_Modernization_Developer_48_Dark_c <svg width="48px" height="48px" viewBox="0 0 48 48" version="1.1" xmlns="http://www.w3.org/2000/svg" xmlns:xlink="http://www.w3.org/1999/xlink"><path id="rect" fill="#56C0A7" d="M5 0h38s5 0 5 5v38s0 5 -5 5h-38s-5 0 -5 -5v-38s0 -5 5 -5" /><path d="M13.03,8 L15.03,8 L15.03,6 L13.03,6 L13.03,8 Z M10.03,8 L12.03,8 L12.03,6 L10.03,6 L10.03,8 Z M7.03,8 L9.03,8 L9.03,6 L7.03,6 L7.03,8 Z M33.318,19.466 C33.709,19.856 33.709,20.489 33.318,20.88 L29.437,24.762 L28.022,23.348 L31.197,20.173 L28.022,16.998 L29.437,15.583 L33.318,19.466 Z M18.256,16.998 L15.081,20.173 L18.256,23.348 L16.842,24.762 L12.96,20.88 C12.569,20.489 12.569,19.856 12.96,19.466 L16.842,15.583 L18.256,16.998 Z M24.192,14.529 L26.05,15.272 L21.833,25.816 L19.976,25.073 L24.192,14.529 Z M33.671,43 L14.37,43 L5.561,36.119 L12.012,29.999 L35.988,29.996 L42.478,36.121 L33.671,43 Z M5.045,11 L42.03,11 L42.03,28 L5.03,28.004 L5.045,11 Z M42.03,5 L42.03,9 L5.03,9 L5.034,5 L42.03,5 Z M38.902,30 L42.27,30 C43.24,30 44.03,29.236 44.03,28.298 L44.03,4.701 C44.03,3.763 43.24,3 42.27,3 L4.791,3 C3.82,3 3.03,3.763 3.03,4.699 L3.01,28.296 C3.008,29.23 3.792,29.994 4.766,30 L9.105,30 L2.5,36.265 L13.681,45 L34.362,45 L45.542,36.266 L38.902,30 Z" id="Fill-1" fill="#FFFFFF" fill="#FFFFFF"></path></svg>
sprite Res_AWS_Mainframe_Modernization_Runtime_48_Dark_c <svg width="48px" height="48px" viewBox="0 0 48 48" version="1.1" xmlns="http://www.w3.org/2000/svg" xmlns:xlink="http://www.w3.org/1999/xlink"><path id="rect" fill="#56C0A7" d="M5 0h38s5 0 5 5v38s0 5 -5 5h-38s-5 0 -5 -5v-38s0 -5 5 -5" /><path d="M28.743,12 L22.343,17 L28.743,22 L39.673,22 L46.072,17 L39.673,12 L28.743,12 Z M25.591,17 L29.432,14 L38.984,14 L42.824,17 L38.984,20 L29.432,20 L25.591,17 Z M8.001,14 L22,14 L22,12 L8.001,12 L8.001,14 Z M3,18 L19,18 L19,16 L3,16 L3,18 Z M12,22 L23,22 L23,20 L12,20 L12,22 Z M22.743,27 L16.343,32 L22.743,37 L33.673,37 L40.073,32 L33.673,27 L22.743,27 Z M19.591,32 L23.432,29 L32.984,29 L36.825,32 L32.984,35 L23.432,35 L19.591,32 Z M9.001,29 L17.001,29 L17.001,27 L9.001,27 L9.001,29 Z M2,33.001 L13,33.001 L13,31 L2,31 L2,33.001 Z M5,37 L17.001,37 L17.001,35 L5,35 L5,37 Z" id="Fill-1" fill="#FFFFFF" fill="#FFFFFF"></path></svg>
sprite Res_AWS_Migration_Hub_Refactor_Spaces_Applications_48_Dark_c <svg width="48px" height="48px" viewBox="0 0 48 48" version="1.1" xmlns="http://www.w3.org/2000/svg" xmlns:xlink="http://www.w3.org/1999/xlink"><path id="rect" fill="#56C0A7" d="M5 0h38s5 0 5 5v38s0 5 -5 5h-38s-5 0 -5 -5v-38s0 -5 5 -5" /><path d="M31,34 C31,37.86 27.859,41 24,41 C20.141,41 17,37.86 17,34 C17,31.215 18.639,28.811 21,27.685 L21,30.026 C19.793,30.939 19,32.373 19,34 C19,36.757 21.243,39 24,39 C26.757,39 29,36.757 29,34 C29,32.373 28.207,30.939 27,30.026 L27,27.685 C29.361,28.811 31,31.215 31,34 L31,34 Z M12,24 C13.654,24 15,25.346 15,27 C15,28.654 13.654,30 12,30 C10.346,30 9,28.654 9,27 C9,25.346 10.346,24 12,24 L12,24 Z M18,21 L30,21 L30,9 L18,9 L18,21 Z M36,24 C37.654,24 39,25.346 39,27 C39,28.654 37.654,30 36,30 C34.346,30 33,28.654 33,27 C33,25.346 34.346,24 36,24 L36,24 Z M12,32 C14.44,32 16.471,30.24 16.907,27.924 C19.458,27.535 21.481,25.538 21.91,23 L23,23 L23,32 L25,32 L25,23 L26.09,23 C26.519,25.538 28.542,27.535 31.093,27.924 C31.529,30.24 33.56,32 36,32 C38.757,32 41,29.757 41,27 C41,24.243 38.757,22 36,22 C33.623,22 31.635,23.672 31.131,25.899 C29.669,25.573 28.517,24.443 28.142,23 L31,23 C31.553,23 32,22.552 32,22 L32,8 C32,7.448 31.553,7 31,7 L17,7 C16.447,7 16,7.448 16,8 L16,22 C16,22.552 16.447,23 17,23 L19.858,23 C19.483,24.443 18.331,25.573 16.869,25.899 C16.365,23.672 14.377,22 12,22 C9.243,22 7,24.243 7,27 C7,29.757 9.243,32 12,32 L12,32 Z M24.707,15.043 L28.207,18.543 L26.793,19.957 L24,17.164 L21.207,19.957 L19.793,18.543 L23.293,15.043 C23.684,14.652 24.316,14.652 24.707,15.043 L24.707,15.043 Z M24.707,10.543 L28.207,14.043 L26.793,15.457 L24,12.664 L21.207,15.457 L19.793,14.043 L23.293,10.543 C23.684,10.152 24.316,10.152 24.707,10.543 L24.707,10.543 Z M4,44 L44,44 L44,4 L4,4 L4,44 Z M45,2 L3,2 C2.447,2 2,2.448 2,3 L2,45 C2,45.552 2.447,46 3,46 L45,46 C45.553,46 46,45.552 46,45 L46,3 C46,2.448 45.553,2 45,2 L45,2 Z" id="Fill-1" fill="#FFFFFF" fill="#FFFFFF"></path></svg>
sprite Res_AWS_Migration_Hub_Refactor_Spaces_Environments_48_Dark_c <svg width="48px" height="48px" viewBox="0 0 48 48" version="1.1" xmlns="http://www.w3.org/2000/svg" xmlns:xlink="http://www.w3.org/1999/xlink"><path id="rect" fill="#56C0A7" d="M5 0h38s5 0 5 5v38s0 5 -5 5h-38s-5 0 -5 -5v-38s0 -5 5 -5" /><path d="M31.707,26.293 L35.707,30.293 L34.293,31.707 L31,28.414 L27.707,31.707 L26.293,30.293 L30.293,26.293 C30.684,25.902 31.316,25.902 31.707,26.293 L31.707,26.293 Z M31.707,31.293 L35.707,35.293 L34.293,36.707 L31,33.414 L27.707,36.707 L26.293,35.293 L30.293,31.293 C30.684,30.902 31.316,30.902 31.707,31.293 L31.707,31.293 Z M23,39 L39,39 L39,23 L23,23 L23,39 Z M21,22 L21,40 C21,40.552 21.447,41 22,41 L40,41 C40.553,41 41,40.552 41,40 L41,22 C41,21.448 40.553,21 40,21 L22,21 C21.447,21 21,21.448 21,22 L21,22 Z M7,26 L7,8 C7,7.448 7.447,7 8,7 L26,7 C26.553,7 27,7.448 27,8 L27,19 L25,19 L25,9 L9,9 L9,25 L19,25 L19,27 L8,27 C7.447,27 7,26.552 7,26 L7,26 Z M17,14.414 L13.707,17.707 L12.293,16.293 L16.293,12.293 C16.684,11.902 17.316,11.902 17.707,12.293 L21.707,16.293 L20.293,17.707 L17,14.414 Z M12.293,21.293 L16.293,17.293 C16.684,16.902 17.316,16.902 17.707,17.293 L20.326,19.912 L18.912,21.326 L17,19.414 L13.707,22.707 L12.293,21.293 Z M4,44 L44,44 L44,4 L4,4 L4,44 Z M45,2 L3,2 C2.447,2 2,2.448 2,3 L2,45 C2,45.552 2.447,46 3,46 L45,46 C45.553,46 46,45.552 46,45 L46,3 C46,2.448 45.553,2 45,2 L45,2 Z" id="Fill-1" fill="#FFFFFF" fill="#FFFFFF"></path></svg>
sprite Res_AWS_Migration_Hub_Refactor_Spaces_Services_48_Dark_c <svg width="48px" height="48px" viewBox="0 0 48 48" version="1.1" xmlns="http://www.w3.org/2000/svg" xmlns:xlink="http://www.w3.org/1999/xlink"><path id="rect" fill="#56C0A7" d="M5 0h38s5 0 5 5v38s0 5 -5 5h-38s-5 0 -5 -5v-38s0 -5 5 -5" /><path d="M15,24 C15,28.962 19.037,33 24,33 C28.963,33 33,28.962 33,24 C33,19.038 28.963,15 24,15 C19.037,15 15,19.038 15,24 L15,24 Z M16.966,32.448 L3.707,45.707 L2.293,44.293 L15.552,31.034 C13.961,29.125 13,26.673 13,24 C13,17.935 17.935,13 24,13 C30.065,13 35,17.935 35,24 C35,30.065 30.065,35 24,35 C21.327,35 18.875,34.039 16.966,32.448 L16.966,32.448 Z M24,20.664 L27.793,24.457 L29.207,23.043 L24.707,18.543 C24.316,18.152 23.684,18.152 23.293,18.543 L18.793,23.043 L20.207,24.457 L24,20.664 Z M24,25.664 L27.793,29.457 L29.207,28.043 L24.707,23.543 C24.316,23.152 23.684,23.152 23.293,23.543 L18.793,28.043 L20.207,29.457 L24,25.664 Z M46,20.5 L46,27.5 C46,28.534 45.159,29.375 44.125,29.375 L41.246,29.375 C40.923,30.414 40.503,31.424 39.993,32.392 L42.031,34.43 C42.386,34.784 42.581,35.255 42.581,35.756 C42.581,36.256 42.386,36.728 42.031,37.082 L37.081,42.031 C36.373,42.739 35.14,42.741 34.43,42.031 L32.392,39.993 C31.422,40.503 30.412,40.923 29.375,41.246 L29.375,44.125 C29.375,45.159 28.534,46 27.5,46 L20.5,46 C19.466,46 18.625,45.159 18.625,44.125 L18.625,41.246 C17.588,40.923 16.578,40.503 15.608,39.993 L13.57,42.031 C12.861,42.741 11.628,42.739 10.919,42.031 L10.59,41.703 L12.004,40.288 L12.244,40.529 L14.727,38.047 C15.048,37.725 15.544,37.662 15.937,37.89 C17.181,38.613 18.508,39.164 19.881,39.527 C20.319,39.643 20.625,40.04 20.625,40.494 L20.625,44 L27.375,44 L27.375,40.494 C27.375,40.04 27.681,39.643 28.119,39.527 C29.492,39.164 30.819,38.613 32.063,37.89 C32.456,37.662 32.952,37.725 33.273,38.047 L35.756,40.529 L40.529,35.756 L38.047,33.273 C37.726,32.953 37.661,32.456 37.89,32.063 C38.612,30.822 39.163,29.495 39.527,28.119 C39.644,27.681 40.04,27.375 40.494,27.375 L44,27.375 L44,20.625 L40.494,20.625 C40.04,20.625 39.644,20.319 39.527,19.881 C39.163,18.505 38.612,17.178 37.89,15.937 C37.661,15.544 37.726,15.047 38.047,14.727 L40.529,12.245 L35.756,7.471 L33.273,9.953 C32.952,10.275 32.456,10.338 32.063,10.11 C30.819,9.387 29.492,8.836 28.119,8.473 C27.681,8.357 27.375,7.96 27.375,7.506 L27.375,4 L20.625,4 L20.625,7.506 C20.625,7.96 20.319,8.357 19.881,8.473 C18.508,8.836 17.181,9.387 15.937,10.11 C15.544,10.338 15.048,10.275 14.727,9.953 L12.244,7.471 L7.471,12.244 L9.953,14.727 C10.274,15.047 10.339,15.544 10.11,15.937 C9.388,17.178 8.837,18.505 8.473,19.881 C8.356,20.319 7.96,20.625 7.506,20.625 L4,20.625 L4,27.375 L7.506,27.375 C7.96,27.375 8.356,27.681 8.473,28.119 C8.837,29.495 9.388,30.822 10.11,32.063 C10.339,32.456 10.274,32.953 9.953,33.273 L7.471,35.755 L7.73,36.014 L6.316,37.429 L5.969,37.082 C5.614,36.728 5.419,36.256 5.419,35.756 C5.419,35.255 5.614,34.784 5.969,34.43 L8.007,32.392 C7.497,31.424 7.077,30.414 6.754,29.375 L3.875,29.375 C2.841,29.375 2,28.534 2,27.5 L2,20.5 C2,19.466 2.841,18.625 3.875,18.625 L6.754,18.625 C7.077,17.586 7.497,16.576 8.007,15.608 L5.969,13.57 C5.614,13.216 5.419,12.745 5.419,12.244 C5.419,11.744 5.614,11.272 5.969,10.918 L10.919,5.969 C11.628,5.26 12.861,5.259 13.57,5.969 L15.608,8.007 C16.578,7.497 17.588,7.077 18.625,6.754 L18.625,3.875 C18.625,2.841 19.466,2 20.5,2 L27.5,2 C28.534,2 29.375,2.841 29.375,3.875 L29.375,6.754 C30.412,7.077 31.422,7.497 32.392,8.007 L34.43,5.969 C35.14,5.259 36.373,5.26 37.081,5.969 L42.031,10.918 C42.386,11.272 42.581,11.744 42.581,12.244 C42.581,12.745 42.386,13.216 42.031,13.57 L39.993,15.608 C40.503,16.576 40.923,17.586 41.246,18.625 L44.125,18.625 C45.159,18.625 46,19.466 46,20.5 L46,20.5 Z" id="Fill-1" fill="#FFFFFF" fill="#FFFFFF"></path></svg>
sprite Res_AWS_Transfer_Family_AWS_FTPS_48_Dark_c <svg width="48px" height="48px" viewBox="0 0 48 48" version="1.1" xmlns="http://www.w3.org/2000/svg" xmlns:xlink="http://www.w3.org/1999/xlink"><path id="rect" fill="#56C0A7" d="M5 0h38s5 0 5 5v38s0 5 -5 5h-38s-5 0 -5 -5v-38s0 -5 5 -5" /><path d="M45.502,10.8818 L36.913,2.2928 C36.523,1.9028 35.89,1.9028 35.499,2.2928 L26.91,10.8818 C26.624,11.1678 26.538,11.5978 26.693,11.9718 C26.848,12.3458 27.213,12.5888 27.617,12.5888 L31.985,12.5888 L31.985,16.9558 L31.985,21.2508 L31.985,24.4708 C31.985,25.0238 32.433,25.4708 32.985,25.4708 L35.939,25.4708 L29.765,31.6458 L23.591,25.4708 L26.544,25.4708 C27.097,25.4708 27.544,25.0238 27.544,24.4708 L27.544,16.9558 L25.544,16.9558 L25.544,23.4708 L21.177,23.4708 C20.773,23.4708 20.407,23.7138 20.253,24.0878 C20.098,24.4618 20.184,24.8918 20.47,25.1778 L29.058,33.7668 C29.245,33.9538 29.499,34.0598 29.765,34.0598 C30.03,34.0598 30.284,33.9538 30.472,33.7668 L39.061,25.1778 C39.347,24.8918 39.433,24.4618 39.277,24.0878 C39.123,23.7138 38.758,23.4708 38.354,23.4708 L33.985,23.4708 L33.985,21.2508 L33.985,16.9558 L33.985,11.5888 C33.985,11.0358 33.538,10.5888 32.985,10.5888 L30.031,10.5888 L36.206,4.4138 L42.381,10.5888 L39.427,10.5888 C38.874,10.5888 38.427,11.0358 38.427,11.5888 L38.427,19.1768 L36.206,19.1768 L36.206,21.1768 L41.648,21.1768 L41.648,43.8678 L39.696,43.8678 L39.696,45.8678 L42.648,45.8678 C43.2,45.8678 43.648,45.4208 43.648,44.8678 L43.648,20.1768 C43.648,19.6238 43.2,19.1768 42.648,19.1768 L40.427,19.1768 L40.427,12.5888 L44.795,12.5888 C45.199,12.5888 45.564,12.3458 45.719,11.9718 C45.874,11.5978 45.788,11.1678 45.502,10.8818 L45.502,10.8818 Z M9.294,42.7218 L9.294,21.1768 L23.323,21.1768 L23.323,19.1768 L8.294,19.1768 C7.741,19.1768 7.294,19.6238 7.294,20.1768 L7.294,42.7218 C7.294,43.3538 6.779,43.8678 6.147,43.8678 C5.515,43.8678 5,43.3538 5,42.7218 L5,13.6618 L15.399,13.6618 L17.585,16.4938 C17.774,16.7388 18.067,16.8828 18.377,16.8828 L23.323,16.8828 L23.323,14.8828 L18.868,14.8828 L16.683,12.0508 C16.493,11.8058 16.2,11.6618 15.891,11.6618 L4,11.6618 C3.447,11.6618 3,12.1098 3,12.6618 L3,42.7218 C3,44.4568 4.411,45.8678 6.147,45.8678 L11.515,45.8678 L11.515,43.8678 L9.07,43.8678 C9.211,43.5118 9.294,43.1268 9.294,42.7218 L9.294,42.7218 Z M37.588,41.5228 C37.326,41.2818 36.971,41.0418 36.525,40.8018 L35.83,40.4278 C35.451,40.2218 35.195,40.0328 35.063,39.8608 C34.93,39.6898 34.863,39.4708 34.863,39.2038 C34.863,38.8868 34.967,38.6368 35.172,38.4568 C35.379,38.2768 35.662,38.1868 36.023,38.1868 C36.555,38.1868 37.17,38.3158 37.865,38.5718 L37.865,37.2068 C37.195,36.8988 36.522,36.7428 35.842,36.7428 C35.301,36.7428 34.822,36.8488 34.406,37.0588 C33.99,37.2698 33.66,37.5698 33.42,37.9608 C33.18,38.3518 33.061,38.8088 33.061,39.3328 C33.061,39.8998 33.197,40.3808 33.473,40.7758 C33.746,41.1708 34.201,41.5398 34.838,41.8838 L35.533,42.2568 C35.885,42.4458 36.137,42.6328 36.287,42.8178 C36.438,43.0018 36.512,43.2278 36.512,43.4938 C36.512,43.8548 36.404,44.1318 36.189,44.3248 C35.975,44.5178 35.662,44.6138 35.25,44.6138 C34.967,44.6138 34.625,44.5738 34.227,44.4918 C33.826,44.4108 33.467,44.3098 33.15,44.1898 L33.15,45.5418 C33.424,45.6968 33.764,45.8208 34.168,45.9158 C34.57,46.0098 34.975,46.0578 35.379,46.0578 C36.307,46.0578 37.033,45.8198 37.563,45.3428 C38.09,44.8658 38.356,44.2198 38.356,43.4028 C38.356,42.9838 38.293,42.6238 38.168,42.3278 C38.043,42.0308 37.85,41.7638 37.588,41.5228 L37.588,41.5228 Z M30.227,39.7448 C30.227,39.2638 30.139,38.8998 29.963,38.6508 C29.785,38.4018 29.531,38.2768 29.195,38.2768 L28.357,38.2768 L28.357,41.2138 L29.195,41.2138 C29.531,41.2138 29.785,41.0888 29.963,40.8398 C30.139,40.5908 30.227,40.2268 30.227,39.7448 L30.227,39.7448 Z M31.303,37.6908 C31.77,38.1928 32.004,38.8778 32.004,39.7448 C32.004,40.6118 31.77,41.2978 31.303,41.7998 C30.834,42.3018 30.205,42.5538 29.414,42.5538 L28.357,42.5538 L28.357,45.8638 L26.594,45.8638 L26.594,36.9368 L29.414,36.9368 C30.205,36.9368 30.834,37.1878 31.303,37.6908 L31.303,37.6908 Z M19.494,38.3658 L21.633,38.3658 L21.633,45.8638 L23.438,45.8638 L23.438,38.3658 L25.576,38.3658 L25.576,36.9368 L19.494,36.9368 L19.494,38.3658 Z M14.098,36.9368 L18.748,36.9368 L18.748,38.3158 L15.9,38.3158 L15.9,40.7238 L18.129,40.7238 L18.129,42.1028 L15.9,42.1028 L15.9,45.8638 L14.098,45.8638 L14.098,36.9368 Z" id="AWS-Transfer-Family-AWS-FTPS_Resource-Icon_light-bg" fill="#FFFFFF" fill="#FFFFFF"></path></svg>
sprite Res_AWS_Transfer_Family_AWS_FTP_48_Dark_c <svg width="48px" height="48px" viewBox="0 0 48 48" version="1.1" xmlns="http://www.w3.org/2000/svg" xmlns:xlink="http://www.w3.org/1999/xlink"><path id="rect" fill="#56C0A7" d="M5 0h38s5 0 5 5v38s0 5 -5 5h-38s-5 0 -5 -5v-38s0 -5 5 -5" /><path d="M30.2783,39.832 C30.2783,39.35 30.1903,38.984 30.0133,38.734 C29.8373,38.485 29.5813,38.36 29.2463,38.36 L28.4073,38.36 L28.4073,41.304 L29.2463,41.304 C29.5813,41.304 29.8373,41.179 30.0133,40.929 C30.1903,40.68 30.2783,40.313 30.2783,39.832 L30.2783,39.832 Z M31.3563,37.773 C31.8253,38.276 32.0593,38.963 32.0593,39.832 C32.0593,40.701 31.8253,41.387 31.3563,41.891 C30.8863,42.394 30.2573,42.645 29.4653,42.645 L28.4073,42.645 L28.4073,45.963 L26.6383,45.963 L26.6383,37.018 L29.4653,37.018 C30.2573,37.018 30.8863,37.269 31.3563,37.773 L31.3563,37.773 Z M19.5253,38.45 L21.6683,38.45 L21.6683,45.963 L23.4753,45.963 L23.4753,38.45 L25.6183,38.45 L25.6183,37.018 L19.5253,37.018 L19.5253,38.45 Z M14.1183,45.963 L15.9243,45.963 L15.9243,42.194 L18.1583,42.194 L18.1583,40.812 L15.9243,40.812 L15.9243,38.399 L18.7773,38.399 L18.7773,37.018 L14.1183,37.018 L14.1183,45.963 Z M45.5823,10.898 L36.9763,2.293 C36.5863,1.902 35.9533,1.902 35.5623,2.293 L26.9573,10.898 C26.6713,11.185 26.5853,11.614 26.7403,11.988 C26.8943,12.362 27.2593,12.605 27.6643,12.605 L32.0433,12.605 L32.0433,16.983 L32.0433,21.286 L32.0433,24.513 C32.0433,25.065 32.4903,25.513 33.0433,25.513 L36.0073,25.513 L29.8153,31.704 L23.6253,25.513 L26.5893,25.513 C27.1413,25.513 27.5893,25.065 27.5893,24.513 L27.5893,16.983 L25.5893,16.983 L25.5893,23.513 L21.2113,23.513 C20.8063,23.513 20.4413,23.756 20.2873,24.13 C20.1323,24.504 20.2173,24.934 20.5043,25.22 L29.1083,33.825 C29.2963,34.013 29.5493,34.118 29.8153,34.118 C30.0813,34.118 30.3353,34.013 30.5223,33.825 L39.1283,25.22 C39.4143,24.934 39.5003,24.504 39.3443,24.13 C39.1903,23.756 38.8253,23.513 38.4213,23.513 L34.0433,23.513 L34.0433,21.286 L34.0433,16.983 L34.0433,11.605 C34.0433,11.053 33.5953,10.605 33.0433,10.605 L30.0783,10.605 L36.2693,4.414 L42.4613,10.605 L39.4963,10.605 C38.9433,10.605 38.4963,11.053 38.4963,11.605 L38.4963,19.21 L36.2693,19.21 L36.2693,21.21 L41.7233,21.21 L41.7233,43.95 L33.3473,43.95 L33.3473,45.95 L42.7233,45.95 C43.2763,45.95 43.7233,45.503 43.7233,44.95 L43.7233,20.21 C43.7233,19.657 43.2763,19.21 42.7233,19.21 L40.4963,19.21 L40.4963,12.605 L44.8753,12.605 C45.2793,12.605 45.6443,12.362 45.7993,11.988 C45.9543,11.614 45.8683,11.185 45.5823,10.898 L45.5823,10.898 Z M9.0773,43.95 L11.5303,43.95 L11.5303,45.95 L6.1513,45.95 C4.4143,45.95 3.0003,44.536 3.0003,42.799 L3.0003,12.681 C3.0003,12.128 3.4473,11.681 4.0003,11.681 L15.9143,11.681 C16.2233,11.681 16.5163,11.824 16.7063,12.069 L18.8963,14.908 L23.3613,14.908 L23.3613,16.908 L18.4053,16.908 C18.0953,16.908 17.8023,16.765 17.6133,16.52 L15.4233,13.681 L5.0003,13.681 L5.0003,42.799 C5.0003,43.434 5.5163,43.95 6.1513,43.95 C6.7863,43.95 7.3023,43.434 7.3023,42.799 L7.3023,20.21 C7.3023,19.657 7.7503,19.21 8.3023,19.21 L23.3613,19.21 L23.3613,21.21 L9.3023,21.21 L9.3023,42.799 C9.3023,43.206 9.2183,43.593 9.0773,43.95 L9.0773,43.95 Z" id="AWS-Transfer-Family-AWS-FTP_Resource-Icon_light-bg" fill="#FFFFFF" fill="#FFFFFF"></path></svg>
sprite Res_AWS_Transfer_Family_AWS_SFTP_48_Dark_c <svg width="48px" height="48px" viewBox="0 0 48 48" version="1.1" xmlns="http://www.w3.org/2000/svg" xmlns:xlink="http://www.w3.org/1999/xlink"><path id="rect" fill="#56C0A7" d="M5 0h38s5 0 5 5v38s0 5 -5 5h-38s-5 0 -5 -5v-38s0 -5 5 -5" /><path d="M36.5742,39.5566 C36.5742,39.0756 36.4862,38.7086 36.3082,38.4586 C36.1332,38.2086 35.8772,38.0846 35.5412,38.0846 L34.7012,38.0846 L34.7012,41.0296 L35.5412,41.0296 C35.8772,41.0296 36.1332,40.9046 36.3082,40.6556 C36.4862,40.4056 36.5742,40.0386 36.5742,39.5566 L36.5742,39.5566 Z M37.6522,37.4966 C38.1212,38.0006 38.3572,38.6876 38.3572,39.5566 C38.3572,40.4266 38.1212,41.1136 37.6522,41.6176 C37.1832,42.1206 36.5532,42.3726 35.7602,42.3726 L34.7012,42.3726 L34.7012,45.6926 L32.9312,45.6926 L32.9312,36.7416 L35.7602,36.7416 C36.5532,36.7416 37.1832,36.9936 37.6522,37.4966 L37.6522,37.4966 Z M25.8142,38.1746 L27.9592,38.1746 L27.9592,45.6926 L29.7672,45.6926 L29.7672,38.1746 L31.9102,38.1746 L31.9102,36.7416 L25.8142,36.7416 L25.8142,38.1746 Z M20.4022,45.6926 L22.2112,45.6926 L22.2112,41.9206 L24.4452,41.9206 L24.4452,40.5386 L22.2112,40.5386 L22.2112,38.1226 L25.0642,38.1226 L25.0642,36.7416 L20.4022,36.7416 L20.4022,45.6926 Z M18.3032,41.3396 C18.0412,41.0986 17.6852,40.8576 17.2382,40.6166 L16.5412,40.2416 C16.1622,40.0356 15.9042,39.8456 15.7712,39.6726 C15.6382,39.5006 15.5722,39.2816 15.5722,39.0146 C15.5722,38.6966 15.6762,38.4466 15.8812,38.2656 C16.0882,38.0846 16.3732,37.9946 16.7342,37.9946 C17.2672,37.9946 17.8832,38.1226 18.5822,38.3816 L18.5822,37.0126 C17.9102,36.7026 17.2322,36.5476 16.5532,36.5476 C16.0102,36.5476 15.5312,36.6536 15.1132,36.8646 C14.6952,37.0756 14.3652,37.3756 14.1252,37.7676 C13.8832,38.1606 13.7632,38.6186 13.7632,39.1436 C13.7632,39.7116 13.9002,40.1946 14.1762,40.5896 C14.4512,40.9866 14.9082,41.3566 15.5452,41.7016 L16.2442,42.0766 C16.5952,42.2656 16.8472,42.4526 16.9982,42.6376 C17.1482,42.8236 17.2242,43.0486 17.2242,43.3156 C17.2242,43.6776 17.1172,43.9546 16.9022,44.1486 C16.6872,44.3426 16.3732,44.4396 15.9592,44.4396 C15.6762,44.4396 15.3322,44.3986 14.9312,44.3166 C14.5312,44.2356 14.1722,44.1336 13.8532,44.0136 L13.8532,45.3686 C14.1292,45.5246 14.4692,45.6496 14.8752,45.7436 C15.2792,45.8386 15.6832,45.8856 16.0882,45.8856 C17.0172,45.8856 17.7482,45.6476 18.2772,45.1686 C18.8062,44.6916 19.0722,44.0436 19.0722,43.2256 C19.0722,42.8036 19.0102,42.4446 18.8852,42.1466 C18.7602,41.8496 18.5662,41.5806 18.3032,41.3396 L18.3032,41.3396 Z M45.6092,10.9036 L36.9982,2.2926 C36.6072,1.9026 35.9742,1.9026 35.5842,2.2926 L26.9732,10.9036 C26.6872,11.1896 26.6012,11.6196 26.7572,11.9936 C26.9112,12.3676 27.2762,12.6106 27.6802,12.6106 L32.0622,12.6106 L32.0622,16.9926 L32.0622,21.2976 L32.0622,24.5276 C32.0622,25.0796 32.5102,25.5276 33.0622,25.5276 L36.0302,25.5276 L29.8332,31.7246 L23.6362,25.5276 L26.6032,25.5276 C27.1562,25.5276 27.6032,25.0796 27.6032,24.5276 L27.6032,16.9926 L25.6032,16.9926 L25.6032,23.5276 L21.2212,23.5276 C20.8172,23.5276 20.4522,23.7706 20.2982,24.1446 C20.1422,24.5186 20.2282,24.9486 20.5142,25.2346 L29.1262,33.8456 C29.3212,34.0406 29.5772,34.1386 29.8332,34.1386 C30.0892,34.1386 30.3452,34.0406 30.5402,33.8456 L39.1512,25.2346 C39.4372,24.9486 39.5232,24.5186 39.3682,24.1446 C39.2142,23.7706 38.8482,23.5276 38.4442,23.5276 L34.0622,23.5276 L34.0622,21.2976 L34.0622,16.9926 L34.0622,11.6106 C34.0622,11.0576 33.6152,10.6106 33.0622,10.6106 L30.0952,10.6106 L36.2912,4.4136 L42.4882,10.6106 L39.5202,10.6106 C38.9682,10.6106 38.5202,11.0576 38.5202,11.6106 L38.5202,19.2216 L36.2912,19.2216 L36.2912,21.2216 L41.7502,21.2216 L41.7502,43.9786 L39.4562,43.9786 L39.4562,45.9786 L42.7502,45.9786 C43.3032,45.9786 43.7502,45.5316 43.7502,44.9786 L43.7502,20.2216 C43.7502,19.6686 43.3032,19.2216 42.7502,19.2216 L40.5202,19.2216 L40.5202,12.6106 L44.9022,12.6106 C45.3062,12.6106 45.6722,12.3666 45.8262,11.9936 C45.9812,11.6196 45.8952,11.1896 45.6092,10.9036 L45.6092,10.9036 Z M9.0802,43.9786 L11.5342,43.9786 L11.5342,45.9786 L6.1522,45.9786 C4.4142,45.9786 3.0002,44.5646 3.0002,42.8266 L3.0002,12.6876 C3.0002,12.1346 3.4472,11.6876 4.0002,11.6876 L15.9222,11.6876 C16.2312,11.6876 16.5242,11.8306 16.7132,12.0766 L18.9062,14.9156 L23.3752,14.9156 L23.3752,16.9156 L18.4152,16.9156 C18.1052,16.9156 17.8122,16.7726 17.6242,16.5276 L15.4302,13.6876 L5.0002,13.6876 L5.0002,42.8266 C5.0002,43.4616 5.5162,43.9786 6.1522,43.9786 C6.7882,43.9786 7.3052,43.4616 7.3052,42.8266 L7.3052,20.2216 C7.3052,19.6686 7.7532,19.2216 8.3052,19.2216 L23.3752,19.2216 L23.3752,21.2216 L9.3052,21.2216 L9.3052,42.8266 C9.3052,43.2336 9.2212,43.6206 9.0802,43.9786 L9.0802,43.9786 Z" id="AWS-Transfer-Family-AWS-SFTP_Resource-Icon_light-bg" fill="#FFFFFF" fill="#FFFFFF"></path></svg>
@enduml